{
    "openapi": "3.0.0",
    "info": {
        "title": "POC-RODAR-API",
        "version": "dc0a6920-25af-0565-bc2e-995a037ff906",
        "description": "MOVISTAR - POC",
        "termsOfService": "",
        "contact": {

        },
        "license": {
            "name": ""
        }
    },
    "servers": [
        {
            "url": "http://localhost:3000",
            "description": ""
        }
    ],
    "paths": {
        "/api/user/register": {
            "post": {
                "requestBody": {
                    "description": "",
                    "content": {
                        "application/json": {
                            "schema": {
                                "type": "string",
                                "example": {
                                    "username": "user1",
                                    "password": "pass",
                                    "rol": "Retencion"
                                }
                            },
                            "example": "{\n\t\"username\": \"user1\",\n\t\"password\": \"pass\",\n\t\"rol\": \"Retencion\"\n}\n\n"
                        }
                    },
                    "required": true
                },
                "parameters": [
                    {
                        "$ref": "#/components/parameters/Content-Type"
                    }
                ],
                "responses": {
                    "200": {
                        "description": ""
                    }
                },
                "operationId": "auth",
                "summary": "auth",
                "description": ""
            }
        },
        "/api/user/login": {
            "post": {
                "requestBody": {
                    "description": "",
                    "content": {
                        "application/json": {
                            "schema": {
                                "type": "string",
                                "example": {
                                    "username": "user1",
                                    "password": "pass"
                                }
                            },
                            "example": "{\n\t\"username\": \"user1\",\n\t\"password\": \"pass\"\n\t\n}"
                        }
                    },
                    "required": true
                },
                "parameters": [
                    {
                        "style": "simple",
                        "name": "Content-Type",
                        "description": "",
                        "schema": {
                            "type": "string",
                            "example": "application/json"
                        },
                        "in": "header",
                        "required": true
                    }
                   
                ],
                "responses": {
                    "200": {
                        "description": ""
                    }
                },
                "operationId": "login",
                "summary": "login",
                "description": ""
            }
        },
        "/apis/api.rodar/reps/1234/": {
            "get": {
                "parameters": [
                    {
                        "style": "simple",
                        "name": "Authorization",
                        "description": "",
                        "schema": {
                            "type": "string",
                            "example": "Bearer eyJhbGciOiJIUzI1NiIsInR5cCI6IkpXVCJ9.eyJ1c2VybmFtZSI6InVzZXIxIiwicmVwaWQiOiIxMjM0IiwiaWF0IjoxNjEwNDY5MDMwfQ.qaVBIZi9_GjeAmUhutpNUdlwjyOtfqW3yG8HdTCcK6Q"
                        },
                        "in": "header",
                        "required": true
                    }
                ],
                "responses": {
                    "200": {
                        "description": ""
                    }
                },
                "operationId": "api.rodar.reps",
                "summary": "api.rodar.reps",
                "description": ""
            }
        },
        "/apis/api.rodar/customers/987654/": {
            "get": {
                "parameters": [
                    {
                        "style": "simple",
                        "name": "Authorization",
                        "description": "",
                        "schema": {
                            "type": "string",
                            "example": "Bearer eyJhbGciOiJIUzI1NiIsInR5cCI6IkpXVCJ9.eyJ1c2VybmFtZSI6InVzZXIxIiwicmVwaWQiOiIxMjM0IiwiaWF0IjoxNjEwNDY5MDMwfQ.qaVBIZi9_GjeAmUhutpNUdlwjyOtfqW3yG8HdTCcK6Q"
                        },
                        "in": "header",
                        "required": true
                    }
                ],
                "responses": {
                    "200": {
                        "description": ""
                    }
                },
                "operationId": "api.rodar.reps.customers",
                "summary": "api.rodar.reps.customers",
                "description": ""
            }
        },
        "/apis/api.rodar/subscribers/987654/": {
            "get": {
                "parameters": [
                    {
                        "style": "simple",
                        "name": "Authorization",
                        "description": "",
                        "schema": {
                            "type": "string",
                            "example": "Bearer eyJhbGciOiJIUzI1NiIsInR5cCI6IkpXVCJ9.eyJ1c2VybmFtZSI6InVzZXIxIiwicmVwaWQiOiIxMjM0IiwiaWF0IjoxNjEwNDY5MDMwfQ.qaVBIZi9_GjeAmUhutpNUdlwjyOtfqW3yG8HdTCcK6Q"
                        },
                        "in": "header",
                        "required": true
                    }
                ],
                "responses": {
                    "200": {
                        "description": ""
                    }
                },
                "operationId": "api.rodar.reps.subscribers",
                "summary": "api.rodar.reps.subscribers",
                "description": ""
            }
        },
        "/apis/api.rodar/finantial_accounts/987654/": {
            "get": {
                "parameters": [
                    {
                        "style": "simple",
                        "name": "Authorization",
                        "description": "",
                        "schema": {
                            "type": "string",
                            "example": "Bearer eyJhbGciOiJIUzI1NiIsInR5cCI6IkpXVCJ9.eyJ1c2VybmFtZSI6InVzZXIxIiwicmVwaWQiOiIxMjM0IiwiaWF0IjoxNjEwNDY5MDMwfQ.qaVBIZi9_GjeAmUhutpNUdlwjyOtfqW3yG8HdTCcK6Q"
                        },
                        "in": "header",
                        "required": true
                    }
                ],
                "responses": {
                    "200": {
                        "description": ""
                    }
                },
                "operationId": "api.rodar.reps.financial_account",
                "summary": "api.rodar.reps.financial_account",
                "description": ""
            }
        },
        "/apis/api.rodar/replace_offer/": {
            "get": {
                "parameters": [
                    {
                        "style": "simple",
                        "name": "Authorization",
                        "description": "",
                        "schema": {
                            "type": "string",
                            "example": "Bearer eyJhbGciOiJIUzI1NiIsInR5cCI6IkpXVCJ9.eyJ1c2VybmFtZSI6InVzZXIxIiwicmVwaWQiOiIxMjM0IiwiaWF0IjoxNjEwNDY5MDMwfQ.qaVBIZi9_GjeAmUhutpNUdlwjyOtfqW3yG8HdTCcK6Q"
                        },
                        "in": "header",
                        "required": true
                    },
                    {
                        "style": "simple",
                        "name": "Content-Type",
                        "description": "",
                        "schema": {
                            "type": "string",
                            "example": "application/json"
                        },
                        "in": "header",
                        "required": true
                    }
                ],
                "responses": {
                    "200": {
                        "description": ""
                    }
                },
                "operationId": "api.rodar.reps.replace_offer",
                "summary": "api.rodar.reps.replace_offer",
                "description": ""
            },
            "post": {
                "requestBody": {
                    "description": "",
                    "content": {
                        "application/json": {
                            "schema": {
                                "type": "string",
                                "example": {
                                    "customer_id": 987654,
                                    "item": 125
                                }
                            },
                            "example": "{\r\n    \"customer_id\": 987654,\r\n    \"item\": 125\r\n}"
                        }
                    },
                    "required": true
                },
                "parameters": [
                    {
                        "style": "simple",
                        "name": "Authorization",
                        "description": "",
                        "schema": {
                            "type": "string",
                            "example": "Bearer eyJhbGciOiJIUzI1NiIsInR5cCI6IkpXVCJ9.eyJ1c2VybmFtZSI6InVzZXIxIiwicmVwaWQiOiIxMjM0IiwiaWF0IjoxNjEwNDY5MDMwfQ.qaVBIZi9_GjeAmUhutpNUdlwjyOtfqW3yG8HdTCcK6Q"
                        },
                        "in": "header",
                        "required": true
                    },
                    {
                        "style": "simple",
                        "name": "Content-Type",
                        "description": "",
                        "schema": {
                            "type": "string",
                            "example": "application/json"
                        },
                        "in": "header",
                        "required": true
                    }
                ],
                "responses": {
                    "200": {
                        "description": ""
                    }
                },
                "operationId": "api.rodar.reps.replace_offer7",
                "summary": "api.rodar.reps.replace_offer",
                "description": ""
            }
        }
    },
    "components": {
        "parameters": {
            "Content-Type": {
                "style": "simple",
                "name": "Content-Type",
                "description": "",
                "schema": {
                    "type": "string",
                    "example": "application/json"
                },
                "in": "header",
                "required": true
            },
            "Authorization": {
                "style": "simple",
                "name": "Authorization",
                "description": "",
                "schema": {
                    "type": "string",
                    "example": "Bearer eyJhbGciOiJIUzI1NiIsInR5cCI6IkpXVCJ9.eyJ1c2VybmFtZSI6InNlciIsImlhdCI6MTYxMDIxMzM0OH0.2hQUfg6kjVpg0zIMCj5g20VPC7z2l52BJ8newLWYzuU"
                },
                "in": "header",
                "required": true
            }
        }
    },
    "externalDocs": {
        "description": "",
        "url": ""
    },
    "warnings": [
    ]
}
