{ 
    "_id" : ObjectId("60079fa5144a58023066e755"), 
    "Id" : "C1", 
    "Name" : "Cust A", 
    "Address" : "C Address A", 
    "Contact" : "Contact Cust A", 
    "__v" : NumberInt(0)
}
{ 
    "_id" : ObjectId("6008224d31d42103a8b0e664"), 
    "Id" : "C2", 
    "Name" : "Cust B", 
    "Address" : "C Address A", 
    "Contact" : "Contact Cust B", 
    "__v" : NumberInt(0)
}
{ 
    "_id" : ObjectId("6008225d31d42103a8b0e665"), 
    "Id" : "C3", 
    "Name" : "Cust B", 
    "Address" : "C Address B", 
    "Contact" : "Contact Cust B", 
    "__v" : NumberInt(0)
}
