{ 
    "_id" : ObjectId("60090f854af5420229274c7c"), 
    "Id" : "I1", 
    "InvoiceNumber" : "1111", 
    "PurchaseDate" : ISODate("2020-03-03T00:00:00.000+0000"), 
    "CustomerLocationId" : ObjectId("60079fa5144a58023066e755"), 
    "DistributorLocationId" : ObjectId("60079ef6144a58023066e752"), 
    "Qty" : NumberInt(5), 
    "Weight" : NumberInt(50), 
    "UnitOfMeasure" : "CASE", 
    "UnitPrice" : NumberInt(7), 
    "ProductId" : ObjectId("6007a17e144a58023066e75c"), 
    "ManufacturerId" : ObjectId("6007a01f144a58023066e757"), 
    "TotalPrice" : NumberInt(35), 
    "__v" : NumberInt(0)
}
{ 
    "_id" : ObjectId("60090f994af5420229274c7d"), 
    "Id" : "I2", 
    "InvoiceNumber" : "1111", 
    "PurchaseDate" : ISODate("2020-03-03T00:00:00.000+0000"), 
    "CustomerLocationId" : ObjectId("60079fa5144a58023066e755"), 
    "DistributorLocationId" : ObjectId("60079ef6144a58023066e752"), 
    "Qty" : NumberInt(10), 
    "Weight" : NumberInt(20), 
    "UnitOfMeasure" : "CASE", 
    "UnitPrice" : NumberInt(5), 
    "ProductId" : ObjectId("6007a1bd144a58023066e75d"), 
    "ManufacturerId" : ObjectId("6007a034144a58023066e758"), 
    "TotalPrice" : NumberInt(50), 
    "__v" : NumberInt(0)
}
{ 
    "_id" : ObjectId("60090fa34af5420229274c7e"), 
    "Id" : "I3", 
    "InvoiceNumber" : "1111", 
    "PurchaseDate" : ISODate("2020-03-03T00:00:00.000+0000"), 
    "CustomerLocationId" : ObjectId("60079fa5144a58023066e755"), 
    "DistributorLocationId" : ObjectId("60079ef6144a58023066e752"), 
    "Qty" : NumberInt(0), 
    "Weight" : NumberInt(40), 
    "UnitOfMeasure" : "CASE", 
    "UnitPrice" : NumberInt(3), 
    "ProductId" : ObjectId("6007a1f0144a58023066e75f"), 
    "ManufacturerId" : ObjectId("6007a041144a58023066e759"), 
    "TotalPrice" : NumberInt(120), 
    "__v" : NumberInt(0)
}
{ 
    "_id" : ObjectId("60090fa84af5420229274c7f"), 
    "Id" : "I4", 
    "InvoiceNumber" : "1112", 
    "PurchaseDate" : ISODate("2020-03-03T00:00:00.000+0000"), 
    "CustomerLocationId" : ObjectId("6008224d31d42103a8b0e664"), 
    "DistributorLocationId" : ObjectId("60079f2b144a58023066e753"), 
    "Qty" : NumberInt(10), 
    "Weight" : NumberInt(100), 
    "UnitOfMeasure" : "CASE", 
    "UnitPrice" : NumberInt(7), 
    "ProductId" : ObjectId("6007a17e144a58023066e75c"), 
    "ManufacturerId" : ObjectId("6007a01f144a58023066e757"), 
    "TotalPrice" : NumberInt(70), 
    "__v" : NumberInt(0)
}
{ 
    "_id" : ObjectId("60090fad4af5420229274c80"), 
    "Id" : "I5", 
    "InvoiceNumber" : "1112", 
    "PurchaseDate" : ISODate("2020-03-03T00:00:00.000+0000"), 
    "CustomerLocationId" : ObjectId("6008225d31d42103a8b0e665"), 
    "DistributorLocationId" : ObjectId("60079f2b144a58023066e753"), 
    "Qty" : NumberInt(0), 
    "Weight" : NumberInt(30), 
    "UnitOfMeasure" : "WEIGHT", 
    "UnitPrice" : 2.5, 
    "ProductId" : ObjectId("6007a249144a58023066e760"), 
    "ManufacturerId" : ObjectId("6007a050144a58023066e75a"), 
    "TotalPrice" : NumberInt(75), 
    "__v" : NumberInt(0)
}
{ 
    "_id" : ObjectId("60090fb34af5420229274c81"), 
    "Id" : "I6", 
    "InvoiceNumber" : "1113", 
    "PurchaseDate" : ISODate("2020-03-03T00:00:00.000+0000"), 
    "CustomerLocationId" : ObjectId("60079fa5144a58023066e755"), 
    "DistributorLocationId" : ObjectId("60079f37144a58023066e754"), 
    "Qty" : NumberInt(12), 
    "Weight" : NumberInt(100), 
    "UnitOfMeasure" : "CASE", 
    "UnitPrice" : NumberInt(9), 
    "ProductId" : ObjectId("6007a29d144a58023066e762"), 
    "ManufacturerId" : ObjectId("6007a01f144a58023066e757"), 
    "TotalPrice" : NumberInt(108), 
    "__v" : NumberInt(0)
}
{ 
    "_id" : ObjectId("60090fb84af5420229274c82"), 
    "Id" : "I7", 
    "InvoiceNumber" : "1113", 
    "PurchaseDate" : ISODate("2020-03-03T00:00:00.000+0000"), 
    "CustomerLocationId" : ObjectId("60079fa5144a58023066e755"), 
    "DistributorLocationId" : ObjectId("60079f37144a58023066e754"), 
    "Qty" : NumberInt(0), 
    "Weight" : NumberInt(25), 
    "UnitOfMeasure" : "WEIGHT", 
    "UnitPrice" : 2.5, 
    "ProductId" : ObjectId("6007a249144a58023066e760"), 
    "ManufacturerId" : ObjectId("6007a050144a58023066e75a"), 
    "TotalPrice" : 62.5, 
    "__v" : NumberInt(0)
}
{ 
    "_id" : ObjectId("60090fd24af5420229274c84"), 
    "Id" : "I8", 
    "InvoiceNumber" : "1113", 
    "PurchaseDate" : ISODate("2020-03-03T00:00:00.000+0000"), 
    "CustomerLocationId" : ObjectId("60079fa5144a58023066e755"), 
    "DistributorLocationId" : ObjectId("60079f37144a58023066e754"), 
    "Qty" : NumberInt(7), 
    "Weight" : NumberInt(70), 
    "UnitOfMeasure" : "CASE", 
    "UnitPrice" : NumberInt(10), 
    "ProductId" : ObjectId("6007a2e5144a58023066e764"), 
    "ManufacturerId" : ObjectId("6007a05d144a58023066e75b"), 
    "TotalPrice" : NumberInt(70), 
    "__v" : NumberInt(0)
}
