{ 
    "_id" : ObjectId("6006fdf1c4e0750049fba434"), 
    "username" : "user1", 
    "password" : "$2a$10$75QN9gr2IDnfFvAVsTaLFeADosx0qh8K7ngP/R84Uqf3g6T6nFRuu", 
    "rol" : "Retencion", 
    "repid" : "1234", 
    "__v" : NumberInt(0)
}
{ 
    "_id" : ObjectId("6006fdf1c4e0750049fba435"), 
    "username" : "user2", 
    "password" : "$2a$10$pnLVMRc5IitEFHWzCCoa7uNkV24HsSuwgvMv4je5dGM86J2LHqUfq", 
    "rol" : "Callcenter", 
    "repid" : "5678", 
    "__v" : NumberInt(0)
}
{ 
    "_id" : ObjectId("6006fdfa302b3700c3bf1739"), 
    "username" : "user1", 
    "password" : "$2a$10$PgOcfEJFRmVAJHU.uUixeuXplXvx8hhJ5auy6T4A7rPHzQxWx0L4.", 
    "rol" : "Retencion", 
    "repid" : "1234", 
    "__v" : NumberInt(0)
}
{ 
    "_id" : ObjectId("6006fdfb302b3700c3bf173a"), 
    "username" : "user2", 
    "password" : "$2a$10$NYjdz7fBRaB/kICkqaFKEu0No/vtFuH3E9DJlYFcVCuHrV819N4HC", 
    "rol" : "Callcenter", 
    "repid" : "5678", 
    "__v" : NumberInt(0)
}
{ 
    "_id" : ObjectId("6006fe3f302b3700c3bf173b"), 
    "username" : "willy", 
    "password" : "$2a$10$78rQWcZGARMMsvy7csGLmuGB4vDGMLBHSvubOwVd0fJbAX5DniDSm", 
    "rol" : "Retencion", 
    "repid" : "1234", 
    "__v" : NumberInt(0)
}
{ 
    "_id" : ObjectId("6006fecc302b3700c3bf173c"), 
    "username" : "willyx", 
    "password" : "$2a$10$NM7choCDOUTNGDc.pT22b.X2YKsq5nVPoQIXwqEHkOm27HBJPlfp.", 
    "rol" : "Retencion", 
    "repid" : "1234", 
    "__v" : NumberInt(0)
}
{ 
    "_id" : ObjectId("6006ffe6fba83800d34df823"), 
    "username" : "user1", 
    "password" : "$2a$10$bROQTBeuKyBKO4bb7UGlhu7uA.zz2MML6NAlFlO6ZUK2tFpcDT./6", 
    "rol" : "Retencion", 
    "repid" : "1234", 
    "__v" : NumberInt(0)
}
{ 
    "_id" : ObjectId("6006ffe7fba83800d34df824"), 
    "username" : "user2", 
    "password" : "$2a$10$Kr.nRSQWY/be2l6zO9F1F.iJ5GZzsuZnI6tg1T4/0n5tLA1ik4uMu", 
    "rol" : "Callcenter", 
    "repid" : "5678", 
    "__v" : NumberInt(0)
}
{ 
    "_id" : ObjectId("600700d1a4c18600dfb0a2f0"), 
    "username" : "user1", 
    "password" : "$2a$10$pmH2gCLoaG4hYSQXfMvXPOg0fWslFaut9.apBrbWoreIOelJZzGSq", 
    "rol" : "Retencion", 
    "repid" : "1234", 
    "__v" : NumberInt(0)
}
{ 
    "_id" : ObjectId("600700d1a4c18600dfb0a2f1"), 
    "username" : "user2", 
    "password" : "$2a$10$xJ1Nuj1HMABrX70a.zVb8uTy8RWkJbhSFDmygnJfKwCeHtRm982Ta", 
    "rol" : "Callcenter", 
    "repid" : "5678", 
    "__v" : NumberInt(0)
}
{ 
    "_id" : ObjectId("60070150f1eb3e004b04e79d"), 
    "username" : "user1", 
    "password" : "$2a$10$mu7OmiJyH/gOFsOdfDUK7uoQk2ck2SBeuWaZa3nP14785xFfb7DQK", 
    "rol" : "Retencion", 
    "repid" : "1234", 
    "__v" : NumberInt(0)
}
{ 
    "_id" : ObjectId("60070150f1eb3e004b04e79e"), 
    "username" : "user2", 
    "password" : "$2a$10$/nHpexPt.1a/oKd4DTNUruO6rgvnfyQ/HQIkJtho50urst7SQEeH2", 
    "rol" : "Callcenter", 
    "repid" : "5678", 
    "__v" : NumberInt(0)
}
{ 
    "_id" : ObjectId("600701591ca98000dd27bd41"), 
    "username" : "user1", 
    "password" : "$2a$10$DJcne/sgF.KwYiOHsYmFMuqyWc/HShW/EGRm4/GghLGe9u3Oj5kxC", 
    "rol" : "Retencion", 
    "repid" : "1234", 
    "__v" : NumberInt(0)
}
{ 
    "_id" : ObjectId("600701591ca98000dd27bd42"), 
    "username" : "user2", 
    "password" : "$2a$10$0kL.73tp8b7PyicNFOHULe.S0B/7p/UfJScaABZdlw9AmlpmYc5Pu", 
    "rol" : "Callcenter", 
    "repid" : "5678", 
    "__v" : NumberInt(0)
}
{ 
    "_id" : ObjectId("600702aa0a8c4400e9a3b7c4"), 
    "username" : "user1", 
    "password" : "$2a$10$.mp9FDDWi3vAkD0AijxFB.9gtq/GN3cDxLc/31mmab/A6iOARi5cC", 
    "rol" : "Retencion", 
    "repid" : "1234", 
    "__v" : NumberInt(0)
}
{ 
    "_id" : ObjectId("600702aa0a8c4400e9a3b7c5"), 
    "username" : "user2", 
    "password" : "$2a$10$fSZzjPNohEsyfQEYgrEt0eComjLFePSFQ6y6l5L5zeYYDXwQsVfP6", 
    "rol" : "Callcenter", 
    "repid" : "5678", 
    "__v" : NumberInt(0)
}
{ 
    "_id" : ObjectId("6007035d976ce300f500cc00"), 
    "username" : "user1", 
    "password" : "$2a$10$Gq7X5GqmBWFxifN8Xaa35e/SU4d0dYT5Vf3Euk.nC0BGNPClxwCKe", 
    "rol" : "Retencion", 
    "repid" : "1234", 
    "__v" : NumberInt(0)
}
{ 
    "_id" : ObjectId("6007035d976ce300f500cc01"), 
    "username" : "user2", 
    "password" : "$2a$10$qJqMJY45VOw6G/8y5G59puDsDABMLaD7kUPjrjX.S.//1Wo3kxWva", 
    "rol" : "Callcenter", 
    "repid" : "5678", 
    "__v" : NumberInt(0)
}
{ 
    "_id" : ObjectId("600703ba3819e70101a7f9a0"), 
    "username" : "user1", 
    "password" : "$2a$10$rerlS8LQtMvGuR7IJNUbMeK.AawUUtlW6ibI236LGC.p6KsHshxS2", 
    "rol" : "Retencion", 
    "repid" : "1234", 
    "__v" : NumberInt(0)
}
{ 
    "_id" : ObjectId("600703bb3819e70101a7f9a1"), 
    "username" : "user2", 
    "password" : "$2a$10$Of5eYEcNVVgvOwMsxqS7YuuhIDlJRRqHSRClnw4FzL9L5WnI4VJ1K", 
    "rol" : "Callcenter", 
    "repid" : "5678", 
    "__v" : NumberInt(0)
}
{ 
    "_id" : ObjectId("600703e63efac2010d626be7"), 
    "username" : "user1", 
    "password" : "$2a$10$PufE5QVQ/ofVQP.c1zRvpeqez6vWW.B4ooJ7VsfIuShCidlUWG/xK", 
    "rol" : "Retencion", 
    "repid" : "1234", 
    "__v" : NumberInt(0)
}
{ 
    "_id" : ObjectId("600703e73efac2010d626be8"), 
    "username" : "user2", 
    "password" : "$2a$10$1MI8V0S/6x7ew8VFhM9um.3lCPRUz5mbRh8AH613yYvCUBN61nwpa", 
    "rol" : "Callcenter", 
    "repid" : "5678", 
    "__v" : NumberInt(0)
}
{ 
    "_id" : ObjectId("6007040933d1b70119ab07a6"), 
    "username" : "user1", 
    "password" : "$2a$10$AbBfn1TjMc0JvnAZBN2ThOj/5ZiKiH9X41XxQBsPFhc6cu7s6ldkC", 
    "rol" : "Retencion", 
    "repid" : "1234", 
    "__v" : NumberInt(0)
}
{ 
    "_id" : ObjectId("6007040a33d1b70119ab07a7"), 
    "username" : "user2", 
    "password" : "$2a$10$UfE0DYJlY3PCpWecKkfjDuyUVtVUpUrnYDcgOlmRxxv7mlDppA2yi", 
    "rol" : "Callcenter", 
    "repid" : "5678", 
    "__v" : NumberInt(0)
}
{ 
    "_id" : ObjectId("6007042a243d4e01256db1ae"), 
    "username" : "user1", 
    "password" : "$2a$10$hzdbrbcStJykMYMD0t7DVOFwqRTwFyirCBXkcI0euTtb4erRa1XYy", 
    "rol" : "Retencion", 
    "repid" : "1234", 
    "__v" : NumberInt(0)
}
{ 
    "_id" : ObjectId("6007042b243d4e01256db1af"), 
    "username" : "user2", 
    "password" : "$2a$10$RocFioqdaWYyEvtlX.DWAON7dd4TaZ6GwFtpDiA8wai/t/rRW9xwa", 
    "rol" : "Callcenter", 
    "repid" : "5678", 
    "__v" : NumberInt(0)
}
{ 
    "_id" : ObjectId("600704bb590b630131f781c6"), 
    "username" : "user1", 
    "password" : "$2a$10$ZHPDVgwfVbzlOsKMg1WnzOKYr5ttuCS6RsVCgbV7qYXJc6SJTwAo.", 
    "rol" : "Retencion", 
    "repid" : "1234", 
    "__v" : NumberInt(0)
}
{ 
    "_id" : ObjectId("600704bb590b630131f781c7"), 
    "username" : "user2", 
    "password" : "$2a$10$4dOiESWL9rto7e/k.UmV3uVA4bP7bfZksAAMoYM1AvWtAjBCSuVde", 
    "rol" : "Callcenter", 
    "repid" : "5678", 
    "__v" : NumberInt(0)
}
{ 
    "_id" : ObjectId("600704e9efad97013df335a3"), 
    "username" : "user1", 
    "password" : "$2a$10$PNUyVqgTjRZPK6mPnCn5v.NX4iGIQLKegXN7j9It5WlMZwMfi8V3y", 
    "rol" : "Retencion", 
    "repid" : "1234", 
    "__v" : NumberInt(0)
}
{ 
    "_id" : ObjectId("600704e9efad97013df335a4"), 
    "username" : "user2", 
    "password" : "$2a$10$vDly/ReQeJaah/Im1WLkpOCu3R4XZCQ.AVNiQT8JX5zByjYzZTsnG", 
    "rol" : "Callcenter", 
    "repid" : "5678", 
    "__v" : NumberInt(0)
}
{ 
    "_id" : ObjectId("60070517d448f8014911c114"), 
    "username" : "user1", 
    "password" : "$2a$10$lNGCka5iZSSVkx9wWFMZ8.r3I52OYSnMdzigU6X3TKfPRaFIYrzWS", 
    "rol" : "Retencion", 
    "repid" : "1234", 
    "__v" : NumberInt(0)
}
{ 
    "_id" : ObjectId("60070517d448f8014911c115"), 
    "username" : "user2", 
    "password" : "$2a$10$/UUxkBSlaN29T3H2Y4mYOubzLlsnmBnxPir/LRPN.NiAukJNPoBQ2", 
    "rol" : "Callcenter", 
    "repid" : "5678", 
    "__v" : NumberInt(0)
}
{ 
    "_id" : ObjectId("600705c0fa871701556db6cf"), 
    "username" : "user1", 
    "password" : "$2a$10$Jfvgm8UYBYDvb/OCR3hnFefH7pBGA2gzOHbo97xXE298DtlWhun4S", 
    "rol" : "Retencion", 
    "repid" : "1234", 
    "__v" : NumberInt(0)
}
{ 
    "_id" : ObjectId("600705c1fa871701556db6d0"), 
    "username" : "user2", 
    "password" : "$2a$10$rTyxiafP5.pH9px75cSymuUoNEiRCNDiFmq3v7mZRtNUGstTEN5ae", 
    "rol" : "Callcenter", 
    "repid" : "5678", 
    "__v" : NumberInt(0)
}
{ 
    "_id" : ObjectId("60070639d3300501610fabaf"), 
    "username" : "user1", 
    "password" : "$2a$10$i.Q4ntJGNnZgVtdzgfl/RO9/S0qt8YZ8emNt4K0kVCjpGgpJHxYgm", 
    "rol" : "Retencion", 
    "repid" : "1234", 
    "__v" : NumberInt(0)
}
{ 
    "_id" : ObjectId("60070639d3300501610fabb0"), 
    "username" : "user2", 
    "password" : "$2a$10$zvnkC8WdC8yhIiZeRxvKdeVNW8tKiAMOj6GbNLevvLdk5sWWXaUKm", 
    "rol" : "Callcenter", 
    "repid" : "5678", 
    "__v" : NumberInt(0)
}
{ 
    "_id" : ObjectId("6007063d420109016d60947e"), 
    "username" : "user1", 
    "password" : "$2a$10$cj83rWcKrhDv5mUG6UnFjel7R4/RQQridNczEumrhoRxoJ9E/DTRK", 
    "rol" : "Retencion", 
    "repid" : "1234", 
    "__v" : NumberInt(0)
}
{ 
    "_id" : ObjectId("6007063d420109016d60947f"), 
    "username" : "user2", 
    "password" : "$2a$10$7L5ObUQia9ZMbtOwBpeDVeawODdkUH0YXH5sMGBobnGSVNoTupJqO", 
    "rol" : "Callcenter", 
    "repid" : "5678", 
    "__v" : NumberInt(0)
}
{ 
    "_id" : ObjectId("60077b92dd54320048027f54"), 
    "username" : "user1", 
    "password" : "$2a$10$pjYhM2LaKSm3h7NPxGrMAO3AFd6cjUwSJYJ.nUDRPpC9kdDmOZHaS", 
    "rol" : "Retencion", 
    "repid" : "1234", 
    "__v" : NumberInt(0)
}
{ 
    "_id" : ObjectId("60077b92dd54320048027f55"), 
    "username" : "user2", 
    "password" : "$2a$10$I8qWwHR35BX8TQGPogx.I.woLd0BeRBZClJrKwJPLcCLyQReDu7fW", 
    "rol" : "Callcenter", 
    "repid" : "5678", 
    "__v" : NumberInt(0)
}
{ 
    "_id" : ObjectId("60077b9c0901bb00e2b1014b"), 
    "username" : "user1", 
    "password" : "$2a$10$TuuXCR1qRd/W0x4yAREr4OCIkx36KvphvFmmSwe7GcrZa6n1TAZ6W", 
    "rol" : "Retencion", 
    "repid" : "1234", 
    "__v" : NumberInt(0)
}
{ 
    "_id" : ObjectId("60077b9c0901bb00e2b1014c"), 
    "username" : "user2", 
    "password" : "$2a$10$OkMfTSxJiP.JXAEeLI3L/Ofc3n9Pwx7TfLSwcYo/cUerrbBsNYuVu", 
    "rol" : "Callcenter", 
    "repid" : "5678", 
    "__v" : NumberInt(0)
}
{ 
    "_id" : ObjectId("60078d3104d11c00f04c52cc"), 
    "username" : "user1", 
    "password" : "$2a$10$wQdLf.6ICarQ4OlkhaFMGua17c0ZsQMUrN5NHGptAhIXZ2umwJE.C", 
    "rol" : "Retencion", 
    "repid" : "1234", 
    "__v" : NumberInt(0)
}
{ 
    "_id" : ObjectId("60078d3204d11c00f04c52cd"), 
    "username" : "user2", 
    "password" : "$2a$10$HDtSFw2LILAPDM641M2y1ORtatyUsP28XU5qQ/je0uXmacWsRn12W", 
    "rol" : "Callcenter", 
    "repid" : "5678", 
    "__v" : NumberInt(0)
}
{ 
    "_id" : ObjectId("60078d6d77889c00fca28c5d"), 
    "username" : "user1", 
    "password" : "$2a$10$cxBmi17GeM7dEKs1xnlLbuZzeULyVh5dGBTFqOGRiuvzvM/juflU2", 
    "rol" : "Retencion", 
    "repid" : "1234", 
    "__v" : NumberInt(0)
}
{ 
    "_id" : ObjectId("60078d6e77889c00fca28c5e"), 
    "username" : "user2", 
    "password" : "$2a$10$pzQCLtYexrYzFGQTKOGDxeCrJx7aiR1CLtBV9Z9V/LodNcs07vFK6", 
    "rol" : "Callcenter", 
    "repid" : "5678", 
    "__v" : NumberInt(0)
}
{ 
    "_id" : ObjectId("60078e15a4f85701080eb3b6"), 
    "username" : "user1", 
    "password" : "$2a$10$LlxNc0HEWObJyEKUiE.R8.5rWJgRlY0pkSx8EqOEV4QNLZxEpeMY6", 
    "rol" : "Retencion", 
    "repid" : "1234", 
    "__v" : NumberInt(0)
}
{ 
    "_id" : ObjectId("60078e16a4f85701080eb3b7"), 
    "username" : "user2", 
    "password" : "$2a$10$m0msw2z5JgzR7hwQPejKMeLBU/bop4eJlJp/k7sAhaeIUMexudkcq", 
    "rol" : "Callcenter", 
    "repid" : "5678", 
    "__v" : NumberInt(0)
}
{ 
    "_id" : ObjectId("60078f1cb1887701142ba3cd"), 
    "username" : "user1", 
    "password" : "$2a$10$T9Uw2YDPWYY7dtTeDCoJz.ZpqJHt6x1pICBB.nw5XHxB7BrXsVVOG", 
    "rol" : "Retencion", 
    "repid" : "1234", 
    "__v" : NumberInt(0)
}
{ 
    "_id" : ObjectId("60078f1cb1887701142ba3ce"), 
    "username" : "user2", 
    "password" : "$2a$10$iYc/gtOVVy/iS82mTs/TyOpHlieI9Y5KuavMKAdBIJ36pc68ubROO", 
    "rol" : "Callcenter", 
    "repid" : "5678", 
    "__v" : NumberInt(0)
}
{ 
    "_id" : ObjectId("60078f9290a6b101205763a6"), 
    "username" : "user1", 
    "password" : "$2a$10$1tZD.4AZzxDqqcGlckHzWOqe.2YUKCk0GyhFFjGkX3Cl0ExTO.6Je", 
    "rol" : "Retencion", 
    "repid" : "1234", 
    "__v" : NumberInt(0)
}
{ 
    "_id" : ObjectId("60078f9290a6b101205763a7"), 
    "username" : "user2", 
    "password" : "$2a$10$5EvPkKBcnai9QgEXoLHi7.ogs9yVIJFBaFWb9K.yFuSHlncJXPBKe", 
    "rol" : "Callcenter", 
    "repid" : "5678", 
    "__v" : NumberInt(0)
}
{ 
    "_id" : ObjectId("60078fa09ec578012c37021d"), 
    "username" : "user1", 
    "password" : "$2a$10$M6K8cY0UCEOxLHQwJV9h3uvO2lUTogfunlqEJRtNstyKB/37Ig2Gm", 
    "rol" : "Retencion", 
    "repid" : "1234", 
    "__v" : NumberInt(0)
}
{ 
    "_id" : ObjectId("60078fa09ec578012c37021e"), 
    "username" : "user2", 
    "password" : "$2a$10$STBYslR0BX.tOv0GrOway.CNfoGbI8c.sHjRWwwaPf7NgRjzGS2m6", 
    "rol" : "Callcenter", 
    "repid" : "5678", 
    "__v" : NumberInt(0)
}
{ 
    "_id" : ObjectId("60078fc7a92c9f0138fead32"), 
    "username" : "user1", 
    "password" : "$2a$10$fS5zwaPId6TxbCSGV2zKte.hnVavQ.Gh2hadVCdGVtZAnppyl3EYC", 
    "rol" : "Retencion", 
    "repid" : "1234", 
    "__v" : NumberInt(0)
}
{ 
    "_id" : ObjectId("60078fc7a92c9f0138fead33"), 
    "username" : "user2", 
    "password" : "$2a$10$NgV4X0elD7ZbZhSl4D7R/uixaW/AINgHVFzzIQDe7/FAWDfJ5eML6", 
    "rol" : "Callcenter", 
    "repid" : "5678", 
    "__v" : NumberInt(0)
}
{ 
    "_id" : ObjectId("60078fd1f5254a0144e52ebf"), 
    "username" : "user1", 
    "password" : "$2a$10$cv.pnOTkf9oQ1gfLrZiJieUWVahlb9pao0FnxrCo4Ze5Sv2sks6bC", 
    "rol" : "Retencion", 
    "repid" : "1234", 
    "__v" : NumberInt(0)
}
{ 
    "_id" : ObjectId("60078fd1f5254a0144e52ec0"), 
    "username" : "user2", 
    "password" : "$2a$10$3yw9a2LgfcXkOfrtvqoPTee3lf4MIlZVF60P6w1rj6E1tfl6WwlyW", 
    "rol" : "Callcenter", 
    "repid" : "5678", 
    "__v" : NumberInt(0)
}
{ 
    "_id" : ObjectId("60078ff00072f8015067b90f"), 
    "username" : "user1", 
    "password" : "$2a$10$NUkDthhsosgl2scNEYzcvOZcO.ZxfKQ0cRPpwMS3oyV9w4EoXQuu2", 
    "rol" : "Retencion", 
    "repid" : "1234", 
    "__v" : NumberInt(0)
}
{ 
    "_id" : ObjectId("60078ff10072f8015067b910"), 
    "username" : "user2", 
    "password" : "$2a$10$BQzqFzz29txQktIPVvkDoeCGot8STSmhnHlTBK8.vzEM/u1znJV9.", 
    "rol" : "Callcenter", 
    "repid" : "5678", 
    "__v" : NumberInt(0)
}
{ 
    "_id" : ObjectId("600790176b9bea015c7c2d1c"), 
    "username" : "user1", 
    "password" : "$2a$10$I9kGew1NuoEnqu7dnC03o.OND4QnJ0.NxCt6ltRAlZ3v0Kiax9nG2", 
    "rol" : "Retencion", 
    "repid" : "1234", 
    "__v" : NumberInt(0)
}
{ 
    "_id" : ObjectId("600790176b9bea015c7c2d1d"), 
    "username" : "user2", 
    "password" : "$2a$10$4oJRLjzIKfmiYRiR.vGP/eO905KNujDY27l04yAtxqxs5XJKJutQ6", 
    "rol" : "Callcenter", 
    "repid" : "5678", 
    "__v" : NumberInt(0)
}
{ 
    "_id" : ObjectId("600790cd64a9290168398358"), 
    "username" : "user1", 
    "password" : "$2a$10$piLnMLIUC9Biunp//XVUaesmxyg7.DR5PkBVDLqrtcNrsDuS1q5hW", 
    "rol" : "Retencion", 
    "repid" : "1234", 
    "__v" : NumberInt(0)
}
{ 
    "_id" : ObjectId("600790cd64a9290168398359"), 
    "username" : "user2", 
    "password" : "$2a$10$trjw5p3h89m.r/1UmzKRNeQfd3yCo/XUJVemSH5NdMKCfVRa8cACa", 
    "rol" : "Callcenter", 
    "repid" : "5678", 
    "__v" : NumberInt(0)
}
{ 
    "_id" : ObjectId("600796dc55bc5e0174cee8f7"), 
    "username" : "user1", 
    "password" : "$2a$10$TYNygtZDPcYCw1Q9P1Zd8enL3uTVpMNI7ulrGB6udHpXBIiNAJxh2", 
    "rol" : "Retencion", 
    "repid" : "1234", 
    "__v" : NumberInt(0)
}
{ 
    "_id" : ObjectId("600796dd55bc5e0174cee8f8"), 
    "username" : "user2", 
    "password" : "$2a$10$cmKZw5eEym7c2H5WDczSbuwxarOiAkwN7eBvGJeap9MkPS88fmJbq", 
    "rol" : "Callcenter", 
    "repid" : "5678", 
    "__v" : NumberInt(0)
}
{ 
    "_id" : ObjectId("600797296a2943018042171b"), 
    "username" : "user1", 
    "password" : "$2a$10$bJa9AT02p2F4pOdJhFLK2eyASmsos5aVHZyFptDdmz7RrzCTGopTW", 
    "rol" : "Retencion", 
    "repid" : "1234", 
    "__v" : NumberInt(0)
}
{ 
    "_id" : ObjectId("600797296a2943018042171c"), 
    "username" : "user2", 
    "password" : "$2a$10$G4CLCfbGh9kQ0BYCRpwy3u1efBZR63ptstBdZnEQiQPtbOjrIAhWC", 
    "rol" : "Callcenter", 
    "repid" : "5678", 
    "__v" : NumberInt(0)
}
{ 
    "_id" : ObjectId("60079756ea08e7018ce7540b"), 
    "username" : "user1", 
    "password" : "$2a$10$uNNyvNV6TSgI/0ORfTdm9OhjfmnGtOZ.43Q7Gip6Q.NfJPXSAbXsi", 
    "rol" : "Retencion", 
    "repid" : "1234", 
    "__v" : NumberInt(0)
}
{ 
    "_id" : ObjectId("60079756ea08e7018ce7540c"), 
    "username" : "user2", 
    "password" : "$2a$10$mCY4GPkTRE8UIWPmOJGJS.pjDK8TfvR9877Biro.yAFP05sktpstG", 
    "rol" : "Callcenter", 
    "repid" : "5678", 
    "__v" : NumberInt(0)
}
{ 
    "_id" : ObjectId("600797e0f0535601a0810fd4"), 
    "username" : "user1", 
    "password" : "$2a$10$Dzxb1vdkOoCASB0WJso.gO.57tfQnogYLz1QVwEYaFYUYK7iE523u", 
    "rol" : "Retencion", 
    "repid" : "1234", 
    "__v" : NumberInt(0)
}
{ 
    "_id" : ObjectId("600797e0f0535601a0810fd5"), 
    "username" : "user2", 
    "password" : "$2a$10$kMVre2lEpg.JIrr2pE71cumrj3P2ELxPWEHihyTyeWREEQDdSDY.K", 
    "rol" : "Callcenter", 
    "repid" : "5678", 
    "__v" : NumberInt(0)
}
{ 
    "_id" : ObjectId("600798d9266379004a23ef2f"), 
    "username" : "user1", 
    "password" : "$2a$10$DfRzZWMUE4.VniS4KRsNqeqO8cAknFqznP.ySjzZHXp1zixPJKwU.", 
    "rol" : "Retencion", 
    "repid" : "1234", 
    "__v" : NumberInt(0)
}
{ 
    "_id" : ObjectId("600798da266379004a23ef30"), 
    "username" : "user2", 
    "password" : "$2a$10$ATASgMpm84WcVAJa8Kyiq.Stn1wvDBQeAzhlV7iD.hqTA.flbSfXG", 
    "rol" : "Callcenter", 
    "repid" : "5678", 
    "__v" : NumberInt(0)
}
{ 
    "_id" : ObjectId("600798e9afa91c00e907d86b"), 
    "username" : "user1", 
    "password" : "$2a$10$Dlht.WFmDAWlSih89yQXzOu1/DhbOEYs1uMfKiGgACEb57imlnMjK", 
    "rol" : "Retencion", 
    "repid" : "1234", 
    "__v" : NumberInt(0)
}
{ 
    "_id" : ObjectId("600798e9afa91c00e907d86c"), 
    "username" : "user2", 
    "password" : "$2a$10$8D5pb7QyoTJ1lVIQoxfl6uM8tbzRwWHlTPi0UbnY0a11a0A8bX5N.", 
    "rol" : "Callcenter", 
    "repid" : "5678", 
    "__v" : NumberInt(0)
}
{ 
    "_id" : ObjectId("6007991afc1df600f8af547f"), 
    "username" : "user1", 
    "password" : "$2a$10$Jjy7h41RPqfww6f.xpJFfOYxtYVTBxzdxiJ.dPJzWjw5HHaXo7nDG", 
    "rol" : "Retencion", 
    "repid" : "1234", 
    "__v" : NumberInt(0)
}
{ 
    "_id" : ObjectId("6007991afc1df600f8af5480"), 
    "username" : "user2", 
    "password" : "$2a$10$5fMFQhAIUYh6nfAZ7Z5hyOYPJGpqPGJbilYK4V0IYkdplZn2gPqBy", 
    "rol" : "Callcenter", 
    "repid" : "5678", 
    "__v" : NumberInt(0)
}
{ 
    "_id" : ObjectId("600799302539dc0104388c21"), 
    "username" : "user1", 
    "password" : "$2a$10$suirxgJukpQfoiQOLX1IDuRkGLWerV2YNsEpWgoWh4mjj5m2MMMIS", 
    "rol" : "Retencion", 
    "repid" : "1234", 
    "__v" : NumberInt(0)
}
{ 
    "_id" : ObjectId("600799302539dc0104388c22"), 
    "username" : "user2", 
    "password" : "$2a$10$Q6BwrZmuGbRFIadV3dAnjusPW5FLOWlt.ehsHPaOVx708p/Upm8Ma", 
    "rol" : "Callcenter", 
    "repid" : "5678", 
    "__v" : NumberInt(0)
}
{ 
    "_id" : ObjectId("6007998417388f0110c3f4d9"), 
    "username" : "user1", 
    "password" : "$2a$10$Zkr2ZTunb9yxj8yHIWnAreiOoSkUi0NZR1jeyhitMevEdpr5N7CGi", 
    "rol" : "Retencion", 
    "repid" : "1234", 
    "__v" : NumberInt(0)
}
{ 
    "_id" : ObjectId("6007998517388f0110c3f4da"), 
    "username" : "user2", 
    "password" : "$2a$10$.HDc7aISX4s2totimKwVK.ACnD1nA/jW5fJp.CRc41c55Jx0QgEi.", 
    "rol" : "Callcenter", 
    "repid" : "5678", 
    "__v" : NumberInt(0)
}
{ 
    "_id" : ObjectId("600799980a81d8011cf23d3f"), 
    "username" : "user1", 
    "password" : "$2a$10$5AvN0K39j8yTGtx.gaBHlum/H3URp15a8gT1Uffb.YLg0KqFCpKlG", 
    "rol" : "Retencion", 
    "repid" : "1234", 
    "__v" : NumberInt(0)
}
{ 
    "_id" : ObjectId("600799980a81d8011cf23d40"), 
    "username" : "user2", 
    "password" : "$2a$10$ZGThOrLvOKh5R5qYJ7VQEepx1vVowEctJSnlYUj4.NKhgk06a0PaG", 
    "rol" : "Callcenter", 
    "repid" : "5678", 
    "__v" : NumberInt(0)
}
{ 
    "_id" : ObjectId("600799f6bac9cd0128bb3ba9"), 
    "username" : "user1", 
    "password" : "$2a$10$ITSFQ7hEOXNc1E3XPUAyquAzHiz5pq91GRI2n/m5xVhsfVnrRek0W", 
    "rol" : "Retencion", 
    "repid" : "1234", 
    "__v" : NumberInt(0)
}
{ 
    "_id" : ObjectId("600799f7bac9cd0128bb3baa"), 
    "username" : "user2", 
    "password" : "$2a$10$2uMFwz2XkMDIPQYRuSIqY.1Y0imMiOMHlUL48C.7w4ge1JfpbWSyC", 
    "rol" : "Callcenter", 
    "repid" : "5678", 
    "__v" : NumberInt(0)
}
{ 
    "_id" : ObjectId("60079a03febde20134fdf86d"), 
    "username" : "user1", 
    "password" : "$2a$10$GQ8Dv1MMXRdNXjocLRUfSOtUTsX27JNsifUNs6jSfwv1lQFrJoXxi", 
    "rol" : "Retencion", 
    "repid" : "1234", 
    "__v" : NumberInt(0)
}
{ 
    "_id" : ObjectId("60079a04febde20134fdf86e"), 
    "username" : "user2", 
    "password" : "$2a$10$sJ2ZM82O.NxTQO9aVQiLxOqhU0Qp6cq88nit9gq8fBsKn8S5d8IcK", 
    "rol" : "Callcenter", 
    "repid" : "5678", 
    "__v" : NumberInt(0)
}
{ 
    "_id" : ObjectId("60079a0c1651ae01404d1fd9"), 
    "username" : "user1", 
    "password" : "$2a$10$2egQoTcYyJbKlfz3lTQ2GOXA6lMZybEcHoKDjrwRTFdZ3glZiMHVG", 
    "rol" : "Retencion", 
    "repid" : "1234", 
    "__v" : NumberInt(0)
}
{ 
    "_id" : ObjectId("60079a0d1651ae01404d1fda"), 
    "username" : "user2", 
    "password" : "$2a$10$wCo4MLMRPVjiwXiS4Vlo0eUNYPk0jnbHbTYX.8Ud6lQ8HwLCXkgyS", 
    "rol" : "Callcenter", 
    "repid" : "5678", 
    "__v" : NumberInt(0)
}
{ 
    "_id" : ObjectId("60079a21872223014c14246c"), 
    "username" : "user1", 
    "password" : "$2a$10$v6Z3q4EkEIXH6noZDBFfAeAWjpVzrYZ1teaMUllNDr/3BUkSBkmZC", 
    "rol" : "Retencion", 
    "repid" : "1234", 
    "__v" : NumberInt(0)
}
{ 
    "_id" : ObjectId("60079a22872223014c14246d"), 
    "username" : "user2", 
    "password" : "$2a$10$zUMus0OfRKITRdR0kYYGXedTQeEIaJfrV7EwhdrUfnl5hkQMAs.lq", 
    "rol" : "Callcenter", 
    "repid" : "5678", 
    "__v" : NumberInt(0)
}
{ 
    "_id" : ObjectId("60079a37ea53e80158fcc2bb"), 
    "username" : "user1", 
    "password" : "$2a$10$M8S2S6WfTtIDeS/.FqD1YuublCMq8NQUGzy3eRV.JBVcINgDF/ER2", 
    "rol" : "Retencion", 
    "repid" : "1234", 
    "__v" : NumberInt(0)
}
{ 
    "_id" : ObjectId("60079a37ea53e80158fcc2bc"), 
    "username" : "user2", 
    "password" : "$2a$10$9lVLM6ag0rUWqAmjuEDJaOw6oKks1vn3GJ/jBCqVr9mqo8SkYRCDO", 
    "rol" : "Callcenter", 
    "repid" : "5678", 
    "__v" : NumberInt(0)
}
{ 
    "_id" : ObjectId("60079a8910e30f01643d97a9"), 
    "username" : "user1", 
    "password" : "$2a$10$Pi1fZnm.b0GTGj18E.jRiefxhna41NMLdArBF3K6GeZ52j24sXgIe", 
    "rol" : "Retencion", 
    "repid" : "1234", 
    "__v" : NumberInt(0)
}
{ 
    "_id" : ObjectId("60079a8910e30f01643d97aa"), 
    "username" : "user2", 
    "password" : "$2a$10$T4S1hIllh2Wb4bOLfdi00.QWCo9UMMsY1ZbZtFhV5woF6qIRHCC5K", 
    "rol" : "Callcenter", 
    "repid" : "5678", 
    "__v" : NumberInt(0)
}
{ 
    "_id" : ObjectId("60079a9c4382310170d1f283"), 
    "username" : "user1", 
    "password" : "$2a$10$5PYsVDiM4fjR.8.X6qGD8uETwlwY.M/vaXcuP9zT9gKkNmpUBRHU2", 
    "rol" : "Retencion", 
    "repid" : "1234", 
    "__v" : NumberInt(0)
}
{ 
    "_id" : ObjectId("60079a9c4382310170d1f284"), 
    "username" : "user2", 
    "password" : "$2a$10$BE8V26YxS.mm1WI6ygfLN.tODsfdFyE9/leefqGPRjQJdHVWoN22e", 
    "rol" : "Callcenter", 
    "repid" : "5678", 
    "__v" : NumberInt(0)
}
{ 
    "_id" : ObjectId("60079aba867c33017cbe185e"), 
    "username" : "user1", 
    "password" : "$2a$10$pccPas.ZSHxmySTB0EKnWOcRYi6zDapQTjNZePM5q6AmalDPBqUxG", 
    "rol" : "Retencion", 
    "repid" : "1234", 
    "__v" : NumberInt(0)
}
{ 
    "_id" : ObjectId("60079aba867c33017cbe185f"), 
    "username" : "user2", 
    "password" : "$2a$10$MVRG213IorD6i2LlfwkKyOdsw83fmCyrMsh8FsxSbdhnd7Yo.8wQW", 
    "rol" : "Callcenter", 
    "repid" : "5678", 
    "__v" : NumberInt(0)
}
{ 
    "_id" : ObjectId("60079b0337578d0188595fed"), 
    "username" : "user1", 
    "password" : "$2a$10$eiTApDU0SITs4O5MgYTnL.tCsK7.Y/VDdyGi0FLlh8pP7BWA.F.wy", 
    "rol" : "Retencion", 
    "repid" : "1234", 
    "__v" : NumberInt(0)
}
{ 
    "_id" : ObjectId("60079b0437578d0188595fee"), 
    "username" : "user2", 
    "password" : "$2a$10$qqBgzKmOTVUEK014PzBMJuTD700Rckb2SfVKACfMKx.LK3Z/mZYHO", 
    "rol" : "Callcenter", 
    "repid" : "5678", 
    "__v" : NumberInt(0)
}
{ 
    "_id" : ObjectId("60079b1398cb91019468a5f2"), 
    "username" : "user1", 
    "password" : "$2a$10$GfYVQH.MdaJ6Svbd7s23MO3AiAehhmgB4HV4aypXa4kDVFXXFX0gq", 
    "rol" : "Retencion", 
    "repid" : "1234", 
    "__v" : NumberInt(0)
}
{ 
    "_id" : ObjectId("60079b1498cb91019468a5f3"), 
    "username" : "user2", 
    "password" : "$2a$10$LOS/44kt7tI5eO.gGaw5N.Bu//YTSDT8AVs2cA5FTeOjjuMOSChzS", 
    "rol" : "Callcenter", 
    "repid" : "5678", 
    "__v" : NumberInt(0)
}
{ 
    "_id" : ObjectId("60079b5565cfc501a0a3a015"), 
    "username" : "user1", 
    "password" : "$2a$10$IKFD1e6/vvpcybEW4Rw.Geq2T3db1A56H0bkAGL1Ya2Hc183IahFK", 
    "rol" : "Retencion", 
    "repid" : "1234", 
    "__v" : NumberInt(0)
}
{ 
    "_id" : ObjectId("60079b5565cfc501a0a3a016"), 
    "username" : "user2", 
    "password" : "$2a$10$E/DF6d7EakYycgi4mo2LUeD7AL.80I52x8UviKhPx7KrdKqGGpQqS", 
    "rol" : "Callcenter", 
    "repid" : "5678", 
    "__v" : NumberInt(0)
}
{ 
    "_id" : ObjectId("60079bb295662201aca074ad"), 
    "username" : "user1", 
    "password" : "$2a$10$d9CP84d0pqXbigiePlIQeewEmQIXTV3juNTIfyHjLZ.dfwGLE0BHa", 
    "rol" : "Retencion", 
    "repid" : "1234", 
    "__v" : NumberInt(0)
}
{ 
    "_id" : ObjectId("60079bb395662201aca074ae"), 
    "username" : "user2", 
    "password" : "$2a$10$T7GdiP/2ruooPwgOT1fyiuO6Co/2YuwiCtV/mm6cpElzmMaO0l9BO", 
    "rol" : "Callcenter", 
    "repid" : "5678", 
    "__v" : NumberInt(0)
}
{ 
    "_id" : ObjectId("60079bd303f7b301b888e8b0"), 
    "username" : "user1", 
    "password" : "$2a$10$qev/1VBJweSIeRCoCO05au0bW9X0S1USPeEIzAzAAvhqDUJq5oKrm", 
    "rol" : "Retencion", 
    "repid" : "1234", 
    "__v" : NumberInt(0)
}
{ 
    "_id" : ObjectId("60079bd303f7b301b888e8b1"), 
    "username" : "user2", 
    "password" : "$2a$10$02b19xQp8/TM2AGAw/.fIO5edAXRuYsCu0Xvwvn0R26Nc/WG6mc/W", 
    "rol" : "Callcenter", 
    "repid" : "5678", 
    "__v" : NumberInt(0)
}
{ 
    "_id" : ObjectId("60079bdd93ce5901c46961b5"), 
    "username" : "user1", 
    "password" : "$2a$10$mxqavFyBolA9pmyLBxNfQ.7I5U3e9vvIoB1K7p6itsZ.AyaebYpd.", 
    "rol" : "Retencion", 
    "repid" : "1234", 
    "__v" : NumberInt(0)
}
{ 
    "_id" : ObjectId("60079bdd93ce5901c46961b6"), 
    "username" : "user2", 
    "password" : "$2a$10$mtqFWYxWO9asK6xw/jsdU.gb.LAceI8TikC895RAnqxBjxaikvupe", 
    "rol" : "Callcenter", 
    "repid" : "5678", 
    "__v" : NumberInt(0)
}
{ 
    "_id" : ObjectId("60079bf32dc74d01d0f8cc33"), 
    "username" : "user1", 
    "password" : "$2a$10$m.96QIVowq23Ogy/EvLUnuq1BTUP3d1jqgj8NmsLK4Pi0YDxoERA.", 
    "rol" : "Retencion", 
    "repid" : "1234", 
    "__v" : NumberInt(0)
}
{ 
    "_id" : ObjectId("60079bf32dc74d01d0f8cc34"), 
    "username" : "user2", 
    "password" : "$2a$10$gFiOpfCr9PXaIpA.usV8CuS1Vfyvbmm1Y.fbTJDrx71v9nIoTeYeu", 
    "rol" : "Callcenter", 
    "repid" : "5678", 
    "__v" : NumberInt(0)
}
{ 
    "_id" : ObjectId("60079c23680f9d01dc42e4b5"), 
    "username" : "user1", 
    "password" : "$2a$10$xFb3DSNAQPMNntxlHqClB.cSxwVthDoLQ.g1vrOjJYsycL3UyCgo.", 
    "rol" : "Retencion", 
    "repid" : "1234", 
    "__v" : NumberInt(0)
}
{ 
    "_id" : ObjectId("60079c24680f9d01dc42e4b6"), 
    "username" : "user2", 
    "password" : "$2a$10$jcrYLa9lFJAWzSVhMiGxUe8tc7q7nYx/zSMlbXHJ0euet2w9j5XyW", 
    "rol" : "Callcenter", 
    "repid" : "5678", 
    "__v" : NumberInt(0)
}
{ 
    "_id" : ObjectId("60079c3ac8657101e84a8eb3"), 
    "username" : "user1", 
    "password" : "$2a$10$FHd0y4UAvNWAKnbGW4Njvu4esMg9NhCTZYvSZm4MtwSIngPETAkw6", 
    "rol" : "Retencion", 
    "repid" : "1234", 
    "__v" : NumberInt(0)
}
{ 
    "_id" : ObjectId("60079c3ac8657101e84a8eb4"), 
    "username" : "user2", 
    "password" : "$2a$10$Q2pITsmyPDw1T0PfojCRHOsh5A8nMS43WuIH8PCv5C3K27tJqZRN.", 
    "rol" : "Callcenter", 
    "repid" : "5678", 
    "__v" : NumberInt(0)
}
{ 
    "_id" : ObjectId("60079c60b1100101f44554fe"), 
    "username" : "user1", 
    "password" : "$2a$10$5JFXgEse9bkHwHSCXqsc1OiRjA4tN1r4zoLL5xsKn/ypJAbCBMkYS", 
    "rol" : "Retencion", 
    "repid" : "1234", 
    "__v" : NumberInt(0)
}
{ 
    "_id" : ObjectId("60079c60b1100101f44554ff"), 
    "username" : "user2", 
    "password" : "$2a$10$PzZIerOs/Ib94p8MLFmCjOwfoLrIfgkD72Z8qSBosfyvvKUCIO9/e", 
    "rol" : "Callcenter", 
    "repid" : "5678", 
    "__v" : NumberInt(0)
}
{ 
    "_id" : ObjectId("60079c7c00dc6d0200e38c03"), 
    "username" : "user1", 
    "password" : "$2a$10$YpBN89AHYqSe3hqqDGeKBudpek9dVoc3VSU67/3W3rhgCcB9oPLkK", 
    "rol" : "Retencion", 
    "repid" : "1234", 
    "__v" : NumberInt(0)
}
{ 
    "_id" : ObjectId("60079c7c00dc6d0200e38c04"), 
    "username" : "user2", 
    "password" : "$2a$10$lFdYvYDZqh6WwSHxpay9xuRffR8SjCNy1pSnP8OmxHYzQd/j3vztO", 
    "rol" : "Callcenter", 
    "repid" : "5678", 
    "__v" : NumberInt(0)
}
{ 
    "_id" : ObjectId("60079cb6d838b8020c068492"), 
    "username" : "user1", 
    "password" : "$2a$10$IzbWO8goObTanA5EKejJFuONu0TpOedQKimFNSw5wenUzqtPUPc3S", 
    "rol" : "Retencion", 
    "repid" : "1234", 
    "__v" : NumberInt(0)
}
{ 
    "_id" : ObjectId("60079cb6d838b8020c068493"), 
    "username" : "user2", 
    "password" : "$2a$10$cSd6AfQbBDdcHT/aH.pvMevmD5e2MI5DM7wPtR/5obzDRbqE.fIG2", 
    "rol" : "Callcenter", 
    "repid" : "5678", 
    "__v" : NumberInt(0)
}
{ 
    "_id" : ObjectId("60079cc7fa70710218dec793"), 
    "username" : "user1", 
    "password" : "$2a$10$8h4t13KiqqJ.uMiY679ew.n9Wqhcq4QLK83XBHMuAb9zD6K34BYoS", 
    "rol" : "Retencion", 
    "repid" : "1234", 
    "__v" : NumberInt(0)
}
{ 
    "_id" : ObjectId("60079cc7fa70710218dec794"), 
    "username" : "user2", 
    "password" : "$2a$10$pbK5WYpQptgZdKS/3pTteO7pc4lBs/6YqAnO3NmGht4iJKTgCABuq", 
    "rol" : "Callcenter", 
    "repid" : "5678", 
    "__v" : NumberInt(0)
}
{ 
    "_id" : ObjectId("60079ceaa30aeb02249fd6a3"), 
    "username" : "user1", 
    "password" : "$2a$10$Np3uRab/Q1DZUCaFQl0A3OCS.GEXV6WPWkXtUSr/E2TKSVaM1KdUO", 
    "rol" : "Retencion", 
    "repid" : "1234", 
    "__v" : NumberInt(0)
}
{ 
    "_id" : ObjectId("60079ceaa30aeb02249fd6a4"), 
    "username" : "user2", 
    "password" : "$2a$10$MUeRSes3Wp6vNGRsn0yPPemGALG.icvOBYMhFNipF9ixdoDVeqWTm", 
    "rol" : "Callcenter", 
    "repid" : "5678", 
    "__v" : NumberInt(0)
}
{ 
    "_id" : ObjectId("60079d4a144a58023066e750"), 
    "username" : "user1", 
    "password" : "$2a$10$dgV4iHNmwYmGpD0J1cPwuuvEhs/Tm45iMAEEQ6ctqgPqGpPs0VsxG", 
    "rol" : "Retencion", 
    "repid" : "1234", 
    "__v" : NumberInt(0)
}
{ 
    "_id" : ObjectId("60079d4b144a58023066e751"), 
    "username" : "user2", 
    "password" : "$2a$10$ehvWXF0TXjKEldHSWA/TK.wbDyDylx9BNv7QHLslCSuJqHuIWTUwK", 
    "rol" : "Callcenter", 
    "repid" : "5678", 
    "__v" : NumberInt(0)
}
{ 
    "_id" : ObjectId("6007a39b9053d2023c44c9a6"), 
    "username" : "user1", 
    "password" : "$2a$10$PikV7lzpCJSVSVuXAiHyQeFG1Fjs5Xc29rg9xcM5C6x9bkPAyQcaq", 
    "rol" : "Retencion", 
    "repid" : "1234", 
    "__v" : NumberInt(0)
}
{ 
    "_id" : ObjectId("6007a39b9053d2023c44c9a7"), 
    "username" : "user2", 
    "password" : "$2a$10$r/ieBJvxVco3QVjUKMKIguPfd43YEJLyRb9WWqtrDXMJ8mvrwkJrK", 
    "rol" : "Callcenter", 
    "repid" : "5678", 
    "__v" : NumberInt(0)
}
{ 
    "_id" : ObjectId("6007a3eb5eb65e0248b6f3e3"), 
    "username" : "user1", 
    "password" : "$2a$10$/8uH7dtBGuJmk5n8JUgwu.vNnfca8VloV1dzV/QXw0IwVm0/HClAW", 
    "rol" : "Retencion", 
    "repid" : "1234", 
    "__v" : NumberInt(0)
}
{ 
    "_id" : ObjectId("6007a3ec5eb65e0248b6f3e4"), 
    "username" : "user2", 
    "password" : "$2a$10$.cLrbO3QT.qk9bqxp2PToO4XHpQHFDH90Ju3flaZ8khFIM1R84hHK", 
    "rol" : "Callcenter", 
    "repid" : "5678", 
    "__v" : NumberInt(0)
}
{ 
    "_id" : ObjectId("6007a42515326c0254ff1185"), 
    "username" : "user1", 
    "password" : "$2a$10$Jf9b0rFwfnBk2HUZMGYRSu66PbZoQvD2XljWz021rOcELoFOezxaG", 
    "rol" : "Retencion", 
    "repid" : "1234", 
    "__v" : NumberInt(0)
}
{ 
    "_id" : ObjectId("6007a42515326c0254ff1186"), 
    "username" : "user2", 
    "password" : "$2a$10$9hIgm7Mb1ygHssyoAyCL9ufIkgdLwKE8Ql8WtCWhtGcHb1qWFhfV6", 
    "rol" : "Callcenter", 
    "repid" : "5678", 
    "__v" : NumberInt(0)
}
{ 
    "_id" : ObjectId("6007a5dcf3b8c80260db57b2"), 
    "username" : "user1", 
    "password" : "$2a$10$EG/YmFFQXe.ayyqGVi6rd.ybixi8scW4bkna2BI2yUSrpUqznjgLG", 
    "rol" : "Retencion", 
    "repid" : "1234", 
    "__v" : NumberInt(0)
}
{ 
    "_id" : ObjectId("6007a5dcf3b8c80260db57b3"), 
    "username" : "user2", 
    "password" : "$2a$10$gvXiUTe/jsKiS0dkKxy6de2BpU2Ml6jwhf6vflUjQdNfAlRAG.I6O", 
    "rol" : "Callcenter", 
    "repid" : "5678", 
    "__v" : NumberInt(0)
}
{ 
    "_id" : ObjectId("6007aa2014ee29026c7b9754"), 
    "username" : "user1", 
    "password" : "$2a$10$XS4BD0Me1ZTb9Lx1ZIbV2uYkRyWh/VwTrGFYqwHnP9/1lPpKEIw0O", 
    "rol" : "Retencion", 
    "repid" : "1234", 
    "__v" : NumberInt(0)
}
{ 
    "_id" : ObjectId("6007aa2014ee29026c7b9755"), 
    "username" : "user2", 
    "password" : "$2a$10$SoganQo1xkACYYruMp54w.8F9JY1hcQ4yNDU5FHDKOXsnrbf/4yGa", 
    "rol" : "Callcenter", 
    "repid" : "5678", 
    "__v" : NumberInt(0)
}
{ 
    "_id" : ObjectId("6007aa9442de380278ea4e6b"), 
    "username" : "user1", 
    "password" : "$2a$10$MEjt6kuvlfO5xrYl.4iHUuY6zS9ZLaocrMaYj1U6y7wmijwJnTsxC", 
    "rol" : "Retencion", 
    "repid" : "1234", 
    "__v" : NumberInt(0)
}
{ 
    "_id" : ObjectId("6007aa9542de380278ea4e6c"), 
    "username" : "user2", 
    "password" : "$2a$10$qooT3ManU4Fd2LsDqB.9FOB5MPhRQoAyBlegRjgkjxy/D1Hy2jbbe", 
    "rol" : "Callcenter", 
    "repid" : "5678", 
    "__v" : NumberInt(0)
}
{ 
    "_id" : ObjectId("6007acbbb8b3210284dc2b6f"), 
    "username" : "user1", 
    "password" : "$2a$10$Xbuf6j1joZFAilrrtV/AL..ieQidt41Ze4t7cpQoyuFrohPbYCbGq", 
    "rol" : "Retencion", 
    "repid" : "1234", 
    "__v" : NumberInt(0)
}
{ 
    "_id" : ObjectId("6007acbbb8b3210284dc2b70"), 
    "username" : "user2", 
    "password" : "$2a$10$6aEd3hbTAcTrgrBYHEdq0e8pBnWFPvdiZBoUaKhNBdic7VMe4Tdqm", 
    "rol" : "Callcenter", 
    "repid" : "5678", 
    "__v" : NumberInt(0)
}
{ 
    "_id" : ObjectId("6007acf55838a40290516c84"), 
    "username" : "user1", 
    "password" : "$2a$10$cgXTOFayquu1nsloi5uU3Ohr5CoRIWdDQ/iAjfLu5FFQwD7Q05mqC", 
    "rol" : "Retencion", 
    "repid" : "1234", 
    "__v" : NumberInt(0)
}
{ 
    "_id" : ObjectId("6007acf65838a40290516c85"), 
    "username" : "user2", 
    "password" : "$2a$10$dXd.sNaduTEmDRqcsFgqpeSeemqbiBinXz4UyZ2UX/q4njmbwzpE2", 
    "rol" : "Callcenter", 
    "repid" : "5678", 
    "__v" : NumberInt(0)
}
{ 
    "_id" : ObjectId("6007ad562e65c2029c3be760"), 
    "username" : "user1", 
    "password" : "$2a$10$Lby8STQj.bAtMt6Dl7GwLe1CpuWfKvhrYyH58xPl1iVzfzi6OUxT2", 
    "rol" : "Retencion", 
    "repid" : "1234", 
    "__v" : NumberInt(0)
}
{ 
    "_id" : ObjectId("6007ad572e65c2029c3be761"), 
    "username" : "user2", 
    "password" : "$2a$10$a2SlEIdjwa3RFMcTGo9n9edZQqJJxGajtq06ZLuMmM6pN/Jz8JLV2", 
    "rol" : "Callcenter", 
    "repid" : "5678", 
    "__v" : NumberInt(0)
}
{ 
    "_id" : ObjectId("6007ad6ccbd17902a85cdd77"), 
    "username" : "user1", 
    "password" : "$2a$10$3MZBvLH.ru6.EudO0bxg2uNsiD/JwV4n1HNor3Afh1WAZJgxCSSUG", 
    "rol" : "Retencion", 
    "repid" : "1234", 
    "__v" : NumberInt(0)
}
{ 
    "_id" : ObjectId("6007ad6dcbd17902a85cdd78"), 
    "username" : "user2", 
    "password" : "$2a$10$NVnXmrMlU4k9gpxFbu3YZ.LZl3AfBXtb3JcXL.bois.GT8QOU4xsi", 
    "rol" : "Callcenter", 
    "repid" : "5678", 
    "__v" : NumberInt(0)
}
{ 
    "_id" : ObjectId("6007ae1dbbdeb202b431020b"), 
    "username" : "user1", 
    "password" : "$2a$10$24mByxtnZENm2W4y2GK8rejCKyGh1wkkHVIi.QjZc8C3N95DmjWBa", 
    "rol" : "Retencion", 
    "repid" : "1234", 
    "__v" : NumberInt(0)
}
{ 
    "_id" : ObjectId("6007ae1dbbdeb202b431020c"), 
    "username" : "user2", 
    "password" : "$2a$10$nAbkrvu5ULGZqCAv3FnvvefzDTNhpeVB31TbdF3s3BGL/rfFHb6ni", 
    "rol" : "Callcenter", 
    "repid" : "5678", 
    "__v" : NumberInt(0)
}
{ 
    "_id" : ObjectId("6007ae84e2632e02c03e5c1e"), 
    "username" : "user1", 
    "password" : "$2a$10$QrqVeqAxWksZvqQZIhoK0euCzJrZ/6jYpNumkpTpMFdo/.vCaua7.", 
    "rol" : "Retencion", 
    "repid" : "1234", 
    "__v" : NumberInt(0)
}
{ 
    "_id" : ObjectId("6007ae85e2632e02c03e5c1f"), 
    "username" : "user2", 
    "password" : "$2a$10$Ct32BwXDAXetffoyeVWy/eu9lDg4W5.wTW5.9mmGK7AS22sEoXZvG", 
    "rol" : "Callcenter", 
    "repid" : "5678", 
    "__v" : NumberInt(0)
}
{ 
    "_id" : ObjectId("6007aeeb4e7dea02cc988988"), 
    "username" : "user1", 
    "password" : "$2a$10$Ciq2EmrWQSGmtc.KYrn6GOQnB6X2/6n0CBkqDQJIrfCn7rxwElovG", 
    "rol" : "Retencion", 
    "repid" : "1234", 
    "__v" : NumberInt(0)
}
{ 
    "_id" : ObjectId("6007aeeb4e7dea02cc988989"), 
    "username" : "user2", 
    "password" : "$2a$10$VYyb.RRmYci4ldohAxLUPeXcwkWynYW0OEXq4j78zw0obCHsdeUK.", 
    "rol" : "Callcenter", 
    "repid" : "5678", 
    "__v" : NumberInt(0)
}
{ 
    "_id" : ObjectId("6007af088993d702d86d1940"), 
    "username" : "user1", 
    "password" : "$2a$10$GMz16843cvdXCeA4bQ0.M.EVAMGKyX7hF8BukLotMXq31iNN2ULey", 
    "rol" : "Retencion", 
    "repid" : "1234", 
    "__v" : NumberInt(0)
}
{ 
    "_id" : ObjectId("6007af088993d702d86d1941"), 
    "username" : "user2", 
    "password" : "$2a$10$s77e0jGtkJHwacdze1aFAeCTXGPSuPYq071OUWYuL1pYf9XajYMdK", 
    "rol" : "Callcenter", 
    "repid" : "5678", 
    "__v" : NumberInt(0)
}
{ 
    "_id" : ObjectId("6007af66e9be3002e47420a4"), 
    "username" : "user1", 
    "password" : "$2a$10$f5kKbZPrLIaviQ.TnLfAJekRjqpAuBfKruZgWOBJ2v9PQN/QWIgGS", 
    "rol" : "Retencion", 
    "repid" : "1234", 
    "__v" : NumberInt(0)
}
{ 
    "_id" : ObjectId("6007af66e9be3002e47420a5"), 
    "username" : "user2", 
    "password" : "$2a$10$dp3By.fFtI/dyFHZEiwCr.5d15smXQ/MAFEZLsi08EkhsKq8DZb82", 
    "rol" : "Callcenter", 
    "repid" : "5678", 
    "__v" : NumberInt(0)
}
{ 
    "_id" : ObjectId("6007af8b4ddf2102f08f7754"), 
    "username" : "user1", 
    "password" : "$2a$10$MeYIIJ9xIChjaNeCdQKEnep9xwy9GC6Xq.U99JfY4wO6d.hNtMN9.", 
    "rol" : "Retencion", 
    "repid" : "1234", 
    "__v" : NumberInt(0)
}
{ 
    "_id" : ObjectId("6007af8b4ddf2102f08f7755"), 
    "username" : "user2", 
    "password" : "$2a$10$eneS6CkMbGON7AWmDDYaVON2frUob5JwrrJRHQ60wjPWSE9uF4sjG", 
    "rol" : "Callcenter", 
    "repid" : "5678", 
    "__v" : NumberInt(0)
}
{ 
    "_id" : ObjectId("6007afb64d672702fcb57a73"), 
    "username" : "user1", 
    "password" : "$2a$10$mBwpKL7u/aEoAhXAohF2NuMg2SpXg/ybnsTxGsEB8qrZduSSk3H3C", 
    "rol" : "Retencion", 
    "repid" : "1234", 
    "__v" : NumberInt(0)
}
{ 
    "_id" : ObjectId("6007afb74d672702fcb57a74"), 
    "username" : "user2", 
    "password" : "$2a$10$f8C8ud156FB4ZCYdwtvYaOCPbLoTWoQ8bkO850JXbWaZhjHH/UFlS", 
    "rol" : "Callcenter", 
    "repid" : "5678", 
    "__v" : NumberInt(0)
}
{ 
    "_id" : ObjectId("6007afcb40b5290308963bf5"), 
    "username" : "user1", 
    "password" : "$2a$10$9w9MexECc/dRepKxm/nqJu41ehHWO2/DxTAdqRVJQ6N2cgm9o3pHi", 
    "rol" : "Retencion", 
    "repid" : "1234", 
    "__v" : NumberInt(0)
}
{ 
    "_id" : ObjectId("6007afcc40b5290308963bf6"), 
    "username" : "user2", 
    "password" : "$2a$10$WxRJ5ohq.zWapmrhHJeJAuPC9hb3gVAHiAFCFTscaNAI.xjCrt5Km", 
    "rol" : "Callcenter", 
    "repid" : "5678", 
    "__v" : NumberInt(0)
}
{ 
    "_id" : ObjectId("6007aff6c7c6460314e4b964"), 
    "username" : "user1", 
    "password" : "$2a$10$ov1GSztfm9RDp32ZudPS7eWnkBsLKa6IDF2EP93ke4hH97ntnnqFC", 
    "rol" : "Retencion", 
    "repid" : "1234", 
    "__v" : NumberInt(0)
}
{ 
    "_id" : ObjectId("6007aff6c7c6460314e4b965"), 
    "username" : "user2", 
    "password" : "$2a$10$AIsWnOCGjBk.xv2iHU6WX.fbKzM1IOJh5taunEKAE5zCzA58WYS2u", 
    "rol" : "Callcenter", 
    "repid" : "5678", 
    "__v" : NumberInt(0)
}
{ 
    "_id" : ObjectId("6007b36d520bc103215b50e0"), 
    "username" : "user1", 
    "password" : "$2a$10$xkN66QwBNldJP1S3JBg8WuEg1H6VCih66oXlCQCaiAzAUCcL5hvbe", 
    "rol" : "Retencion", 
    "repid" : "1234", 
    "__v" : NumberInt(0)
}
{ 
    "_id" : ObjectId("6007b36d520bc103215b50e1"), 
    "username" : "user2", 
    "password" : "$2a$10$92DRIyx6LCon1zVIapIuL.AVegpz66H3jcsc2JN6yL9EWhu65qTEa", 
    "rol" : "Callcenter", 
    "repid" : "5678", 
    "__v" : NumberInt(0)
}
{ 
    "_id" : ObjectId("6007b3aa99cb8303382f9e97"), 
    "username" : "user1", 
    "password" : "$2a$10$7Jdv9mXVHHHHNGdWsw5tA.KH4WtRLjVLVAGU2oBjiikbJVezrUnuW", 
    "rol" : "Retencion", 
    "repid" : "1234", 
    "__v" : NumberInt(0)
}
{ 
    "_id" : ObjectId("6007b3ab99cb8303382f9e98"), 
    "username" : "user2", 
    "password" : "$2a$10$GdtX3.ImghdPOQYTUwWNJetIMitHVC/UHEHQ6mY.tmLPgWQ2Phu4u", 
    "rol" : "Callcenter", 
    "repid" : "5678", 
    "__v" : NumberInt(0)
}
{ 
    "_id" : ObjectId("6007b479cf622e0354fe6dcd"), 
    "username" : "user1", 
    "password" : "$2a$10$p4c8Y.IsPn15ch6g2R7qTu0eFHFiE1V7VExbYvVoXZZ0Pv0KCxtFy", 
    "rol" : "Retencion", 
    "repid" : "1234", 
    "__v" : NumberInt(0)
}
{ 
    "_id" : ObjectId("6007b47acf622e0354fe6dce"), 
    "username" : "user2", 
    "password" : "$2a$10$hdov2pooMYTaDW4JT7rf9OT.Ob907aNa.ile3MYMqOHvaf436C11u", 
    "rol" : "Callcenter", 
    "repid" : "5678", 
    "__v" : NumberInt(0)
}
{ 
    "_id" : ObjectId("6007b4bebe4c310360544d18"), 
    "username" : "user1", 
    "password" : "$2a$10$HUJpbVBARRH0Bp25/uP2xeOOLhUs/DC92EApCvPIG8cU83krKe1xy", 
    "rol" : "Retencion", 
    "repid" : "1234", 
    "__v" : NumberInt(0)
}
{ 
    "_id" : ObjectId("6007b4bfbe4c310360544d19"), 
    "username" : "user2", 
    "password" : "$2a$10$tr.6EbXv8qiUcrQM41t.BOmRoSceMnQzBCyYr0kcaKxo3jmD5vGbi", 
    "rol" : "Callcenter", 
    "repid" : "5678", 
    "__v" : NumberInt(0)
}
{ 
    "_id" : ObjectId("6007b4cc6d09dd036c72a6b3"), 
    "username" : "user1", 
    "password" : "$2a$10$PnZ5pkkcYqM2KH/jVz.NgewT/OHV0SbIYRr82tXUoZtoRk7CaWnqy", 
    "rol" : "Retencion", 
    "repid" : "1234", 
    "__v" : NumberInt(0)
}
{ 
    "_id" : ObjectId("6007b4cc6d09dd036c72a6b4"), 
    "username" : "user2", 
    "password" : "$2a$10$8nlu.OCBktf9P2u.dhyrP.zXDo6jEQA/cypM6KgOghykF9YhlVNRy", 
    "rol" : "Callcenter", 
    "repid" : "5678", 
    "__v" : NumberInt(0)
}
{ 
    "_id" : ObjectId("6007b4daf733ec0378515936"), 
    "username" : "user1", 
    "password" : "$2a$10$D1K5vSuSJf89mKjA5gxkVOvzj8VIkBk7q2oFRT9GGzmfxxj5ol4iK", 
    "rol" : "Retencion", 
    "repid" : "1234", 
    "__v" : NumberInt(0)
}
{ 
    "_id" : ObjectId("6007b4dbf733ec0378515937"), 
    "username" : "user2", 
    "password" : "$2a$10$QtD1BqQs98RZbdEN1NE26uwwnA.EcWi1YhQgDOhZuLKjoU/lvLhI.", 
    "rol" : "Callcenter", 
    "repid" : "5678", 
    "__v" : NumberInt(0)
}
{ 
    "_id" : ObjectId("6007b500cc3b9003843f15a2"), 
    "username" : "user1", 
    "password" : "$2a$10$sCrclfrClCPr3c.CcZTKtOHzexVpoXNYQESnFpPDqAWGgMeZM4zY.", 
    "rol" : "Retencion", 
    "repid" : "1234", 
    "__v" : NumberInt(0)
}
{ 
    "_id" : ObjectId("6007b500cc3b9003843f15a3"), 
    "username" : "user2", 
    "password" : "$2a$10$vHNOoEJOtvCwonEw3teFyOH2RMLqYAw.pAKQX6So15xGkMfRB9GJC", 
    "rol" : "Callcenter", 
    "repid" : "5678", 
    "__v" : NumberInt(0)
}
{ 
    "_id" : ObjectId("6007b5689efc6f0390eb7766"), 
    "username" : "user1", 
    "password" : "$2a$10$v0HNWl2HZRFmQxgbIK43F.wWgDxsT/2.17supTdiuqB2t.FuRlc42", 
    "rol" : "Retencion", 
    "repid" : "1234", 
    "__v" : NumberInt(0)
}
{ 
    "_id" : ObjectId("6007b5699efc6f0390eb7767"), 
    "username" : "user2", 
    "password" : "$2a$10$R7wHb83PARn8QpbVj5o9duMJ3aMcTeUniq//R8qumSeED/HMUynB.", 
    "rol" : "Callcenter", 
    "repid" : "5678", 
    "__v" : NumberInt(0)
}
{ 
    "_id" : ObjectId("6007b5a17a5c9f039c1f0e64"), 
    "username" : "user1", 
    "password" : "$2a$10$xJ0wliEQN.fQioxvdvy7kO5UAwsW0tkVH24PA9MTZTHHxSzD3OmLS", 
    "rol" : "Retencion", 
    "repid" : "1234", 
    "__v" : NumberInt(0)
}
{ 
    "_id" : ObjectId("6007b5a17a5c9f039c1f0e65"), 
    "username" : "user2", 
    "password" : "$2a$10$esk6OKG0WpymoA/Uomc4VuSSolpIEF.UcnlhSj6Vm0OV4bazxREXG", 
    "rol" : "Callcenter", 
    "repid" : "5678", 
    "__v" : NumberInt(0)
}
{ 
    "_id" : ObjectId("6007b5a731d42103a8b0e662"), 
    "username" : "user1", 
    "password" : "$2a$10$UzH995pdHjmb9nnReoyozeLaAdQY5TAjodu2CVP1z/HOcQ5qRhLoG", 
    "rol" : "Retencion", 
    "repid" : "1234", 
    "__v" : NumberInt(0)
}
{ 
    "_id" : ObjectId("6007b5a731d42103a8b0e663"), 
    "username" : "user2", 
    "password" : "$2a$10$2xjFS0FFQbMdHQRooTo1M.yJw72hBbsvNhDPM4G.KGzFWL/oX/KCa", 
    "rol" : "Callcenter", 
    "repid" : "5678", 
    "__v" : NumberInt(0)
}
{ 
    "_id" : ObjectId("60082675e1242a03b629e540"), 
    "username" : "user1", 
    "password" : "$2a$10$pR6k/WU7QWBMo5SWSkTYHen6Wlav5iu4dMqGHFVeG5LzM1nQKk3rS", 
    "rol" : "Retencion", 
    "repid" : "1234", 
    "__v" : NumberInt(0)
}
{ 
    "_id" : ObjectId("60082675e1242a03b629e541"), 
    "username" : "user2", 
    "password" : "$2a$10$3DqhIZR0thPOBhbBid5Bo.XYNuqPFuioM7npW/r6JQZyjAgCkJ062", 
    "rol" : "Callcenter", 
    "repid" : "5678", 
    "__v" : NumberInt(0)
}
{ 
    "_id" : ObjectId("6008273cd9894203c25f3a6d"), 
    "username" : "user1", 
    "password" : "$2a$10$gM3gYU6ST2L/DaiGtAKwKOgaBCs9bzBx21jB9WHwlsmyeZ6C20SGy", 
    "rol" : "Retencion", 
    "repid" : "1234", 
    "__v" : NumberInt(0)
}
{ 
    "_id" : ObjectId("6008273dd9894203c25f3a6e"), 
    "username" : "user2", 
    "password" : "$2a$10$bJclQ0f8/ZEmfSeVvHMbKuhCFnpJCjTkunQvcCj1RS0ATiYrY7lk6", 
    "rol" : "Callcenter", 
    "repid" : "5678", 
    "__v" : NumberInt(0)
}
{ 
    "_id" : ObjectId("60082841c2b61003cfde406b"), 
    "username" : "user1", 
    "password" : "$2a$10$wkznQAqX/9HbeeAiODrTAekHqkUCAlZEEK5usSOaggGvZmiTaWqmO", 
    "rol" : "Retencion", 
    "repid" : "1234", 
    "__v" : NumberInt(0)
}
{ 
    "_id" : ObjectId("60082842c2b61003cfde406c"), 
    "username" : "user2", 
    "password" : "$2a$10$2RX0P/0rdU21PaNP3L9RyujqjcOFrLDYKzHiVK6yVbudMyhJcEkk2", 
    "rol" : "Callcenter", 
    "repid" : "5678", 
    "__v" : NumberInt(0)
}
{ 
    "_id" : ObjectId("600828a2088b6e03dcd55366"), 
    "username" : "user1", 
    "password" : "$2a$10$7aTFzAAWiM2fg.dDnEGJKe5xyejwrBhBXCR2zyWOQUJeRwy78pJdm", 
    "rol" : "Retencion", 
    "repid" : "1234", 
    "__v" : NumberInt(0)
}
{ 
    "_id" : ObjectId("600828a2088b6e03dcd55367"), 
    "username" : "user2", 
    "password" : "$2a$10$Wo7BMqm63Ow..agZGqjSvudHnGr9deGWddH.T9O45mARY/RQf8CUe", 
    "rol" : "Callcenter", 
    "repid" : "5678", 
    "__v" : NumberInt(0)
}
{ 
    "_id" : ObjectId("600828adf2844703e8f2efce"), 
    "username" : "user1", 
    "password" : "$2a$10$FtdqK1XkCisC/YqH0WNhw.ZEymSWyfkgfAYWuB.WGNCetNOscaHk.", 
    "rol" : "Retencion", 
    "repid" : "1234", 
    "__v" : NumberInt(0)
}
{ 
    "_id" : ObjectId("600828adf2844703e8f2efcf"), 
    "username" : "user2", 
    "password" : "$2a$10$fOmvcq4ec7ZluvPAwug4D.27Mt0a2gma5fUMqXEnc7gOgU0wgxne2", 
    "rol" : "Callcenter", 
    "repid" : "5678", 
    "__v" : NumberInt(0)
}
{ 
    "_id" : ObjectId("60087efc94bbfd006d413968"), 
    "username" : "user1", 
    "password" : "$2a$10$Di78EnSaL/Cl1XizEhr.pecyXgmPOf.93Pak2l/lG1j7iFMoHVvO.", 
    "rol" : "Retencion", 
    "repid" : "1234", 
    "__v" : NumberInt(0)
}
{ 
    "_id" : ObjectId("60087efd94bbfd006d413969"), 
    "username" : "user2", 
    "password" : "$2a$10$kNEPOK8etLeaKAjDmSnKLeHUsM0e1ScVhYSgABAEcbyAKI0Kl6DX.", 
    "rol" : "Callcenter", 
    "repid" : "5678", 
    "__v" : NumberInt(0)
}
{ 
    "_id" : ObjectId("60087f100fff3e0133b93736"), 
    "username" : "user1", 
    "password" : "$2a$10$4jxbVWDCsBz7uVDHNDxXOuGHs7.djLJ/gyLuHUH0PcrmBw5hZhVkG", 
    "rol" : "Retencion", 
    "repid" : "1234", 
    "__v" : NumberInt(0)
}
{ 
    "_id" : ObjectId("60087f100fff3e0133b93737"), 
    "username" : "user2", 
    "password" : "$2a$10$kGWqUWSp8rx5.z8UldLZse/TaHMNaUNEoS5sFFVu1k0N3AbJ3ymV6", 
    "rol" : "Callcenter", 
    "repid" : "5678", 
    "__v" : NumberInt(0)
}
{ 
    "_id" : ObjectId("60088002e0662c01418df86f"), 
    "username" : "user1", 
    "password" : "$2a$10$AtAP4oQIDH25ECaIzO9ZQ.l2eZ8YYFcl3VAvFncDDvTiO6BWoMbcS", 
    "rol" : "Retencion", 
    "repid" : "1234", 
    "__v" : NumberInt(0)
}
{ 
    "_id" : ObjectId("60088002e0662c01418df870"), 
    "username" : "user2", 
    "password" : "$2a$10$r06SyYMR6XTtLO2ygz/RauOaQUBkpC5EJ6YUzTAh.xllkreM32fTu", 
    "rol" : "Callcenter", 
    "repid" : "5678", 
    "__v" : NumberInt(0)
}
{ 
    "_id" : ObjectId("600880301f46cc014dd33099"), 
    "username" : "user1", 
    "password" : "$2a$10$7QwrK/M2BMRFBxO5HSbtneXWDkyOqTi6nDriHNDV1ZYg54XqMCURS", 
    "rol" : "Retencion", 
    "repid" : "1234", 
    "__v" : NumberInt(0)
}
{ 
    "_id" : ObjectId("600880301f46cc014dd3309a"), 
    "username" : "user2", 
    "password" : "$2a$10$IxAK5IoTdPd7Ryud4UzsAOPPXj1Pgb.aoFeM9q8KkYGag4XvW8w3u", 
    "rol" : "Callcenter", 
    "repid" : "5678", 
    "__v" : NumberInt(0)
}
{ 
    "_id" : ObjectId("600880ea99f2c3015be50f09"), 
    "username" : "user1", 
    "password" : "$2a$10$nVfh2h0mmRBFUmK7p6Pp5OW5j50RI.hP.ouNfUM3Imni2sG1Lua7q", 
    "rol" : "Retencion", 
    "repid" : "1234", 
    "__v" : NumberInt(0)
}
{ 
    "_id" : ObjectId("600880ea99f2c3015be50f0a"), 
    "username" : "user2", 
    "password" : "$2a$10$h6p8vBp72ognXCOfc8CY8uZaK/xiu2y69f9IxfXjGOMMnG1iXlIbW", 
    "rol" : "Callcenter", 
    "repid" : "5678", 
    "__v" : NumberInt(0)
}
{ 
    "_id" : ObjectId("6008811039fdd70167b7e26c"), 
    "username" : "user1", 
    "password" : "$2a$10$prjXDH9Mo4vRpn6bg7K4MeHL9WYhLmYeK7lLj.SjnNSHef0aT.TsK", 
    "rol" : "Retencion", 
    "repid" : "1234", 
    "__v" : NumberInt(0)
}
{ 
    "_id" : ObjectId("6008811139fdd70167b7e26d"), 
    "username" : "user2", 
    "password" : "$2a$10$Cmd1y/OSXtlpytH2B0QIh.DtHaAsrpo62sbd6nmCSXAu82kDINJUy", 
    "rol" : "Callcenter", 
    "repid" : "5678", 
    "__v" : NumberInt(0)
}
{ 
    "_id" : ObjectId("600881499addac0173911226"), 
    "username" : "user1", 
    "password" : "$2a$10$UNwmPWSNW6Fa/M3ASaFyZOOI.KwI.6ru9iQpwJvn5/2kYzvMtmkKS", 
    "rol" : "Retencion", 
    "repid" : "1234", 
    "__v" : NumberInt(0)
}
{ 
    "_id" : ObjectId("600881499addac0173911227"), 
    "username" : "user2", 
    "password" : "$2a$10$yzIKcXd51MaUgFhEAb7vm.aEWcL4IKAzBjvEzEvuKO1p9yhlqhjH.", 
    "rol" : "Callcenter", 
    "repid" : "5678", 
    "__v" : NumberInt(0)
}
{ 
    "_id" : ObjectId("600881c10a545d017f04e33e"), 
    "username" : "user1", 
    "password" : "$2a$10$fqpVLXZwePejkL69bCTC8.DXcRBf47TkRn57S2k/RtInbHWaZkoyi", 
    "rol" : "Retencion", 
    "repid" : "1234", 
    "__v" : NumberInt(0)
}
{ 
    "_id" : ObjectId("600881c10a545d017f04e33f"), 
    "username" : "user2", 
    "password" : "$2a$10$GZd82RX2IUmvINOV0VPx8.phCrxqcya4swkgvEIdlYco.ZbrrSZGy", 
    "rol" : "Callcenter", 
    "repid" : "5678", 
    "__v" : NumberInt(0)
}
{ 
    "_id" : ObjectId("600881d6fa32cc018b0a65ae"), 
    "username" : "user1", 
    "password" : "$2a$10$kMDHtEzEVMFvJXuoGwaRbe4RY1r/ud5qQZbPAUjzmi39JJorGSPMq", 
    "rol" : "Retencion", 
    "repid" : "1234", 
    "__v" : NumberInt(0)
}
{ 
    "_id" : ObjectId("600881d6fa32cc018b0a65af"), 
    "username" : "user2", 
    "password" : "$2a$10$bPQe.Oc2jKFstzXBon70x.CjZNDYHjxaVoNoaRokgQoQ9iPfpM3Yq", 
    "rol" : "Callcenter", 
    "repid" : "5678", 
    "__v" : NumberInt(0)
}
{ 
    "_id" : ObjectId("600882471ee89201987936eb"), 
    "username" : "user1", 
    "password" : "$2a$10$MPv4b3fAIcpKbqF/roojZ.FaOc0mgFLr4QflYZPdmfBEmGKcN2vGO", 
    "rol" : "Retencion", 
    "repid" : "1234", 
    "__v" : NumberInt(0)
}
{ 
    "_id" : ObjectId("600882471ee89201987936ec"), 
    "username" : "user2", 
    "password" : "$2a$10$qzBuSguM4PjwmZUGm6SjqOEhzyi4x9F/K5qSKknmqJ2HzESU1iwWy", 
    "rol" : "Callcenter", 
    "repid" : "5678", 
    "__v" : NumberInt(0)
}
{ 
    "_id" : ObjectId("6008827e61b13401a5e83a6e"), 
    "username" : "user1", 
    "password" : "$2a$10$ORFsERowpuuPn1316Qnsv.ChF71XD8JmpEJ67kmKfZAFAdLDfWBDO", 
    "rol" : "Retencion", 
    "repid" : "1234", 
    "__v" : NumberInt(0)
}
{ 
    "_id" : ObjectId("6008827e61b13401a5e83a6f"), 
    "username" : "user2", 
    "password" : "$2a$10$7uPI1BwFnClQI7WrN.o5FuozRrrJVDOeLS9zC72elMBtZPEcdDU9S", 
    "rol" : "Callcenter", 
    "repid" : "5678", 
    "__v" : NumberInt(0)
}
{ 
    "_id" : ObjectId("6008843344f6ae01b33d37c4"), 
    "username" : "user1", 
    "password" : "$2a$10$shOX8Fg6LamulEVg.tCtleDe/giFisUsICwXRGMiqXjU1UPR6QYRK", 
    "rol" : "Retencion", 
    "repid" : "1234", 
    "__v" : NumberInt(0)
}
{ 
    "_id" : ObjectId("6008843444f6ae01b33d37c5"), 
    "username" : "user2", 
    "password" : "$2a$10$Ok6vlS5y/EDnzr.J7r8kY.2aGTB90pz4YgjPxlu69xrkDFq.IaxZ6", 
    "rol" : "Callcenter", 
    "repid" : "5678", 
    "__v" : NumberInt(0)
}
{ 
    "_id" : ObjectId("60088449ad7c4101bffbe2ee"), 
    "username" : "user1", 
    "password" : "$2a$10$tNoYKndywkj4.XvGDZqqAeXm3gsl0b7uXDlvfJJ/.6SnDkfODVyPW", 
    "rol" : "Retencion", 
    "repid" : "1234", 
    "__v" : NumberInt(0)
}
{ 
    "_id" : ObjectId("60088449ad7c4101bffbe2ef"), 
    "username" : "user2", 
    "password" : "$2a$10$yzM2RRbIwtfnG7XLp6VtJOnmiNcSp2oSmzEMoOxkcMx1jxlv4qHuC", 
    "rol" : "Callcenter", 
    "repid" : "5678", 
    "__v" : NumberInt(0)
}
{ 
    "_id" : ObjectId("6008994575a15701cb0a7abe"), 
    "username" : "user1", 
    "password" : "$2a$10$H4Q48zGG5aGB2AmyZQEDA.Cha.m5i/nG9Eivx0rbcGdu6JV5BtXBK", 
    "rol" : "Retencion", 
    "repid" : "1234", 
    "__v" : NumberInt(0)
}
{ 
    "_id" : ObjectId("6008994675a15701cb0a7abf"), 
    "username" : "user2", 
    "password" : "$2a$10$0jobDFx6MsndmQBDBByUCOjhK1j6lNR.PVs51LKDfAPRt8dPhDf8K", 
    "rol" : "Callcenter", 
    "repid" : "5678", 
    "__v" : NumberInt(0)
}
{ 
    "_id" : ObjectId("6008fdf05cf4df01d78880e6"), 
    "username" : "user1", 
    "password" : "$2a$10$WaAxdFcdda72B36RjUERW.vwcxyrq3mtH0LBe6g./vo3cgPLJ2DI.", 
    "rol" : "Retencion", 
    "repid" : "1234", 
    "__v" : NumberInt(0)
}
{ 
    "_id" : ObjectId("6008fdf05cf4df01d78880e7"), 
    "username" : "user2", 
    "password" : "$2a$10$qvCBW9/CR4f4fH/bnxjPxeMb32iDOM5u2XJrPnpcdmF50uNzb3HUm", 
    "rol" : "Callcenter", 
    "repid" : "5678", 
    "__v" : NumberInt(0)
}
{ 
    "_id" : ObjectId("6008ff01b0f21101e3008584"), 
    "username" : "user1", 
    "password" : "$2a$10$Rnb1M3/lWQ0XALAyimLxp.DnCPI2UE4jdLG55HCKjnhTTMNjaoxtC", 
    "rol" : "Retencion", 
    "repid" : "1234", 
    "__v" : NumberInt(0)
}
{ 
    "_id" : ObjectId("6008ff01b0f21101e3008585"), 
    "username" : "user2", 
    "password" : "$2a$10$yANvy16X8YG4/q10vCjr3.NNA4NTC9/SMRWAS21QwBS9B5hDwXNvG", 
    "rol" : "Callcenter", 
    "repid" : "5678", 
    "__v" : NumberInt(0)
}
{ 
    "_id" : ObjectId("6008ff09fe4f2101ef9208ce"), 
    "username" : "user1", 
    "password" : "$2a$10$yZe8gh3xCC75JOlTQEx8DuOS05qSw7bafYUmkR2vnNxOc.GDHg.ry", 
    "rol" : "Retencion", 
    "repid" : "1234", 
    "__v" : NumberInt(0)
}
{ 
    "_id" : ObjectId("6008ff09fe4f2101ef9208cf"), 
    "username" : "user2", 
    "password" : "$2a$10$tkPr.uHf8w54QXd2v9eOKeQkhKfSX5pVTmI2ByGMmUBx78/WZ7aii", 
    "rol" : "Callcenter", 
    "repid" : "5678", 
    "__v" : NumberInt(0)
}
{ 
    "_id" : ObjectId("6008ff12035c2401fb8f2f34"), 
    "username" : "user1", 
    "password" : "$2a$10$eBVZZ3R.XLzIwy7ul9bBeuVQkHD6/eCy924Kdw4EAJujj5WIfucd2", 
    "rol" : "Retencion", 
    "repid" : "1234", 
    "__v" : NumberInt(0)
}
{ 
    "_id" : ObjectId("6008ff13035c2401fb8f2f35"), 
    "username" : "user2", 
    "password" : "$2a$10$IqZ9rxmMLsBAaQtLpMu/duFIbZS5bh1vVWQnAEquWFGkxLM6b.YiG", 
    "rol" : "Callcenter", 
    "repid" : "5678", 
    "__v" : NumberInt(0)
}
{ 
    "_id" : ObjectId("6008ff2e1cf696020721784e"), 
    "username" : "user1", 
    "password" : "$2a$10$GDM/nujMI7CBBx28ipdtGurIJU.Z0dgFYiqMdim6Vfyaf004aX4eS", 
    "rol" : "Retencion", 
    "repid" : "1234", 
    "__v" : NumberInt(0)
}
{ 
    "_id" : ObjectId("6008ff2e1cf696020721784f"), 
    "username" : "user2", 
    "password" : "$2a$10$OoIbUfDaQ9IfRr5ZSslPyelhvyagcP06xvICDntPiBuw7DlIk7MjW", 
    "rol" : "Callcenter", 
    "repid" : "5678", 
    "__v" : NumberInt(0)
}
{ 
    "_id" : ObjectId("60090eca36fce40214fed7d3"), 
    "username" : "user1", 
    "password" : "$2a$10$es2W2H22hkkd0d0G5uJ2v.7k1MwLyrkwTqoNj8H1J6ikrAwBJZouS", 
    "rol" : "Retencion", 
    "repid" : "1234", 
    "__v" : NumberInt(0)
}
{ 
    "_id" : ObjectId("60090eca36fce40214fed7d4"), 
    "username" : "user2", 
    "password" : "$2a$10$7pacLqfkS4TNxmpQkeDEHOsrstBkv4m.n8uCTv5iNs38mDkvG13fe", 
    "rol" : "Callcenter", 
    "repid" : "5678", 
    "__v" : NumberInt(0)
}
{ 
    "_id" : ObjectId("60090f474af5420229274c79"), 
    "username" : "user1", 
    "password" : "$2a$10$WX8xTVs3tbcnEhIKvsc0/uOB2u9bh5lxsTAH8pKRhCAIUgp0vxWnO", 
    "rol" : "Retencion", 
    "repid" : "1234", 
    "__v" : NumberInt(0)
}
{ 
    "_id" : ObjectId("60090f474af5420229274c7a"), 
    "username" : "user2", 
    "password" : "$2a$10$AIEWuXQUCKsyI1wpTRO70eIYhmuxXVCmrX9B5qKhuwh7L3cZ0a/Vu", 
    "rol" : "Callcenter", 
    "repid" : "5678", 
    "__v" : NumberInt(0)
}
{ 
    "_id" : ObjectId("6009142f18057a0235153c85"), 
    "username" : "user1", 
    "password" : "$2a$10$mQMxkNEvysY9zmQVFsNzC.4owisEEF4u.EjY.fT8HafFX0d1udcLu", 
    "rol" : "Retencion", 
    "repid" : "1234", 
    "__v" : NumberInt(0)
}
{ 
    "_id" : ObjectId("6009142f18057a0235153c86"), 
    "username" : "user2", 
    "password" : "$2a$10$r/lGeFPzIU5ngvUbLkursOA/09G6O2yEieJHeP2UDrF5wm/78cGbi", 
    "rol" : "Callcenter", 
    "repid" : "5678", 
    "__v" : NumberInt(0)
}
{ 
    "_id" : ObjectId("60091508d4d59b02436ffafb"), 
    "username" : "user1", 
    "password" : "$2a$10$tAx3rb1jq0Qb847ytBbXt.TeAPaKaLI.WdRW9wJB08SuHMC0Iog5.", 
    "rol" : "Retencion", 
    "repid" : "1234", 
    "__v" : NumberInt(0)
}
{ 
    "_id" : ObjectId("60091509d4d59b02436ffafc"), 
    "username" : "user2", 
    "password" : "$2a$10$GGj.nGoZFKuPfCblUSUlVO1jmJKsN/hFaGo3okGWsbL.OLOt/.eBe", 
    "rol" : "Callcenter", 
    "repid" : "5678", 
    "__v" : NumberInt(0)
}
{ 
    "_id" : ObjectId("60091515c7cd37024ff4a89d"), 
    "username" : "user1", 
    "password" : "$2a$10$SXfesluTdYhu/aKvkG8nPuaaULQiIjO3nHGAqeKs8daY5HBdYUdU6", 
    "rol" : "Retencion", 
    "repid" : "1234", 
    "__v" : NumberInt(0)
}
{ 
    "_id" : ObjectId("60091516c7cd37024ff4a89e"), 
    "username" : "user2", 
    "password" : "$2a$10$HoofbArsGIQEa6Ak0F1WfOpeiHf8Xxe8GrhCCWhUjxcIeORa5xP.a", 
    "rol" : "Callcenter", 
    "repid" : "5678", 
    "__v" : NumberInt(0)
}
{ 
    "_id" : ObjectId("60091544f1e7a0025bce8d52"), 
    "username" : "user1", 
    "password" : "$2a$10$XpGb1CYfUkhMc4n9LQEQ6.CXZzaEPwLE3NzFMUo9nbEzlFhTr77OG", 
    "rol" : "Retencion", 
    "repid" : "1234", 
    "__v" : NumberInt(0)
}
{ 
    "_id" : ObjectId("60091544f1e7a0025bce8d53"), 
    "username" : "user2", 
    "password" : "$2a$10$4Uw2K/p3Hk0jZIne.RnoZOAyaTxzVNNxMzaYy7X/xbe45SQ3lO7XW", 
    "rol" : "Callcenter", 
    "repid" : "5678", 
    "__v" : NumberInt(0)
}
{ 
    "_id" : ObjectId("60091eb85e2ad90277eeabb9"), 
    "username" : "user1", 
    "password" : "$2a$10$ew0Tug/4qpW0xXYKClU/weQ2Wuc2JGDJlapBw9ghU/VUz0mEk5fDS", 
    "rol" : "Retencion", 
    "repid" : "1234", 
    "__v" : NumberInt(0)
}
{ 
    "_id" : ObjectId("60091eb95e2ad90277eeabba"), 
    "username" : "user2", 
    "password" : "$2a$10$tQruWHtk2PNQzs90ruW.z.os9k0f4qgY6i9deHUjDIxOYNOQlo372", 
    "rol" : "Callcenter", 
    "repid" : "5678", 
    "__v" : NumberInt(0)
}
